id,key,value
0,cat_tla,ABA
0,cat_name,Abanaki
0,cat_name1,Abanaki Corporation
0,cat_name2,Abanaki Corp
0,cat_uri,abanaki
0,bb_name,Abanaki
0,hb_id,638
0,hb_name,Abanaki Corporation
1,cat_tla,ABL
1,cat_name,Abloy
1,cat_name1,Abloy USA
1,cat_name2,Assa Abloy
1,cat_uri,abloy
1,bb_name,Abloy
1,hb_id,1261
1,hb_name,Abloy Locks
2,cat_tla,ABU
2,cat_name,Abus
2,cat_name1,ABUS
2,cat_uri,abus
2,bb_name,Abus
2,hb_id,831
2,hb_name,ABUS USA
3,cat_tla,ACT
3,cat_name,AccuTrak
3,cat_name1,Superior AccuTrak
3,cat_name2,Superior Signal
3,cat_uri,accutrak
3,cat_uri1,-accutrak-
3,bb_name,AccuTrak
3,hb_id,832
3,hb_name,AccuTrak
4,cat_tla,ACE
4,cat_name,Ace Glass
4,cat_name1,Ace Glass Incorporated
4,cat_name2,Ace Glass Inc
4,cat_uri,ace-glass
4,bb_name,Ace Glass
4,hb_id,1853
4,hb_name,Ace Glass
5,cat_tla,ACR
5,cat_name,ACR
5,cat_name1,ACR Systems Inc.
5,cat_name2,ACR Systems
5,cat_uri,acr
5,bb_name,ACR
5,hb_id,597
5,hb_name,ACR Systems Inc.
6,cat_tla,ADW
6,cat_name,A&D Weighing
6,cat_name1,AND Weighing
6,cat_uri,a-d-weighing
6,bb_name,A-D Weighing
6,hb_id,113
6,hb_name,A&D Weighing
7,cat_tla,ADM
7,cat_name,Adam Equipment
7,cat_name1,ADAM Equipment
7,cat_name2,Adam
7,cat_uri,adam-equipment
7,cat_uri1,-adam-equipment-
7,bb_name,Adam Equipment
7,hb_id,91
7,hb_name,Adam Equipment Co Ltd.
8,cat_tla,AEM
8,cat_name,AEMC
8,cat_name1,AEMC Instruments
8,cat_uri,aemc
8,bb_name,AEMC
8,hb_id,249
8,hb_name,AEMC Instruments
9,cat_tla,AFS
9,cat_name,AFS
9,cat_name1,Advanced Fiber Solutions
9,cat_uri,afs
9,bb_name,AFS
9,hb_id,834
9,hb_name,"Advanced Fiber Solutions, Inc. (AFS)"
10,cat_tla,AGR
10,cat_name,AgraTronix
10,cat_name1,AgraTronix LLC
10,cat_name2,Agratronix
10,cat_uri,agratronix
10,bb_name,AgraTronix
10,hb_id,835
10,hb_name,AgraTronix
11,cat_tla,AIR
11,cat_name,Airy Technology
11,cat_name1,Airy Technology Inc.
11,cat_uri,airy-technology
11,bb_name,Airy Technology
11,hb_id,54
11,hb_name,Airy Technology
12,cat_tla,ALL
12,cat_name,All-Weather
12,cat_name1,LA-CO All-Weather
12,cat_name2,All-Weather Markers
12,cat_name3,La-Co All-Weather
12,cat_uri,all-weather
12,bb_name,All-Weather
12,hb_id,812
12,hb_name,All-Weather
13,cat_tla,AWW
13,cat_name,American Weigh Scales
13,cat_name1,American Weigh
13,cat_name2,AWS
13,cat_uri,american-weigh-wholesale
13,bb_name,American Weigh Wholesale
13,hb_id,1117
13,hb_name,"American Weigh Scales, Inc (AWS)"
14,cat_tla,AMP
14,cat_name,Ample Scientific
14,cat_name1,Ample Scientific LLC
14,cat_uri,ample-scientific
14,bb_name,Ample Scientific
14,hb_id,110
14,hb_name,Ample Scientific LLC
15,cat_tla,ANT
15,cat_name,Anti-Seize Technology
15,cat_name1,Anti-Seize Technology
15,cat_name2,AST
15,cat_uri,anti-seize-technology
15,bb_name,Anti-Seize Technology
15,hb_id,836
15,hb_name,Anti-Seize Technology
16,cat_tla,APG
16,cat_name,APG
16,cat_name1,APG Company
16,cat_uri,apg
16,bb_name,APG
16,hb_id,837
16,hb_name,American Packing and Gasket Co. (APG)
17,cat_tla,ARM
17,cat_name,Armasight
17,cat_uri,armasight
17,bb_name,Armasight
17,hb_id,1904
17,hb_name,Armasight
18,cat_tla,ATA
18,cat_name,Atago
18,cat_name1,Atago USA Inc
18,cat_name2,Atago USA
18,cat_uri,atago
18,bb_name,Atago
18,hb_id,838
18,hb_name,Atago USA
19,cat_tla,AVE
19,cat_name,Aven
19,cat_name1,Aven Inc
19,cat_name2,Aven Tools
19,cat_uri,aven
19,bb_name,Aven
19,hb_id,1850
19,hb_name,"Aven, Inc."
20,cat_tla,BAC
20,cat_name,Bacharach
20,cat_name1,Bacharach Inc
20,cat_uri,bacharach
20,bb_name,BACHARACH
20,hb_id,828
20,hb_name,Bacharach
21,cat_tla,BAR
21,cat_name,Barska
21,cat_uri,barska
21,cat_uri1,-barska-
21,bb_name,Barska
21,hb_id,899
21,hb_name,Barska
22,cat_tla,MEO
22,cat_name,Beckman Coulter
22,cat_name1,Beckman Coulter Inc
22,cat_name2,Beckman Coulter Met One
22,cat_uri,beckman-coulter
22,bb_name,Beckman Coulter
22,hb_id,25
22,hb_name,Beckman Coulter (Met One)
23,cat_tla,BEL
23,cat_name,Bel-Art Products
23,cat_name1,Bel Art
23,cat_name2,Bel-Art
23,cat_name3,Bel-Art Products (H-B Instrument)
23,cat_uri,bel-art-products
23,bb_name,Bel-Art Products
23,hb_id,1026
23,hb_name,Bel-Art Products (H-B Instrument)
24,cat_tla,BIG
24,cat_name,Big Gator Tools
24,cat_name1,Big Gator
24,cat_uri,big-gator-tools
24,bb_name,Big Gator Tools
24,hb_id,1950
24,hb_name,Big Gator Tools
25,cat_tla,BIO
25,cat_name,Bio Plas
25,cat_name1,BIO PLAS
25,cat_uri,bio-plas
25,bb_name,Bio Plas
25,hb_id,1127
25,hb_name,Bio Plas
26,cat_tla,BLA
26,cat_name,BlackBox
26,cat_name1,Black Box Network Services
26,cat_name2,Black Box
26,cat_uri,black-box
26,bb_name,Black Box
26,hb_id,840
26,hb_name,Black Box Corporation
27,cat_tla,BLU
27,cat_name,Blue Ocean
27,cat_name1,Nielsen Kellerman Blue Ocean
27,cat_name2,Kestrel Blue Ocean
27,cat_uri,blue-ocean
27,bb_name,Blue Ocean
27,hb_id,1967
27,hb_name,Blue Ocean
28,cat_tla,BRD
28,cat_name,Bradley
28,cat_name1,Bradley Corporation
28,cat_name2,Bradley Corp
28,cat_uri,bradley
28,bb_name,Bradley
28,hb_id,232
28,hb_name,Bradley
29,cat_tla,BRA
29,cat_name,Brady
29,cat_name1,Brady Corporation
29,cat_name2,Brady Corp
29,cat_uri,brady
29,cat_uri1,-brady-
29,bb_name,Brady Corporation
29,hb_id,6
29,hb_name,Brady Corporation
30,cat_tla,BID
30,cat_name,Brady People Id
30,cat_name1,Brady People ID
30,cat_name2,Brady People
30,cat_uri,brady-people-id
30,bb_name,Brady People ID
30,hb_id,841
30,hb_name,Brady People ID
31,cat_tla,BRE
31,cat_name,Brecknell
31,cat_name1,Avery Weigh-Tronix Brecknell
31,cat_name2,Brecknell USA
31,cat_uri,brecknell
31,bb_name,Brecknell
31,hb_id,1104
31,hb_name,Brecknell
32,cat_tla,CAS
32,cat_name,Casella
32,cat_name1,Casella CEL Inc
32,cat_name2,Casella CEL
32,cat_uri,casella
32,bb_name,Casella
32,hb_id,842
32,hb_name,Casella CEL Inc.
33,cat_tla,CHM
33,cat_name,Chemetrics
33,cat_name1,CHEMetrics Inc
33,cat_name2,CHEMetrics
33,cat_uri,chemetrics
33,bb_name,Chemetrics
33,hb_id,843
33,hb_name,"CHEMetrics, Inc."
34,cat_tla,CHE
34,cat_name,Cherne
34,cat_name1,Cherne Industries Inc
34,cat_name2,Cherne Industries
34,cat_name3,Oatey Cherne
34,cat_uri,cherne
34,bb_name,Cherne
34,hb_id,844
34,hb_name,Cherne Industries Inc.
35,cat_tla,CPA
35,cat_name,Cole-Parmer
35,cat_name1,Cole-Parmer Instrument Company
35,cat_name2,Cole Parmer
35,cat_uri,cole-parmer
35,bb_name,Cole-Parmer
35,hb_id,1129
35,hb_name,Cole Parmer
36,cat_tla,CMR
36,cat_name,Comark
36,cat_name1,Comark Instruments
36,cat_uri,comark
36,bb_name,Comark
36,hb_id,845
36,hb_name,"Comark Instruments, Inc."
37,cat_tla,COM
37,cat_name,Compliance West
37,cat_name1,Compliance West Inc
37,cat_name2,Compliance West USA
37,cat_uri,compliance-west
37,bb_name,Compliance West
37,bb_name2,Compliance west
37,hb_id,419
37,hb_name,Compliance West
38,cat_tla,CON
38,cat_name,Conitec Datasystems
38,cat_name1,Conitec Datasystems Inc
38,cat_uri,conitec-datasystems
38,bb_name,Conitec Datasystems
38,hb_id,978
38,hb_name,"Conitec Datasystems, Inc"
39,cat_tla,COO
39,cat_name,Cooper-Atkins
39,cat_name1,Cooper-Atkins Corporation
39,cat_name2,Cooper Atkins
39,cat_uri,cooper-atkins
39,bb_name,Cooper-Atkins
39,hb_id,848
39,hb_name,Cooper-Atkins Corporation
40,cat_tla,CRE
40,cat_name,Crest Ultrasonics
40,cat_name1,Crest
40,cat_uri,crest-ultrasonics
40,bb_name,Crest Ultrasonics
40,hb_id,1212
40,hb_name,Crest Ultrasonics Corp.
41,cat_tla,DAW
41,cat_name,Dawson
41,cat_name1,Dawson Tools Inc
41,cat_name2,Dawson Tools
41,cat_uri,dawson
41,cat_uri1,-dawson-
41,bb_name,Dawson
41,hb_id,1451
41,hb_name,"Dawson Tools, Inc."
42,cat_tla,DEF
42,cat_name,Defiant Technologies
42,cat_uri,defiant-technologies
42,bb_name,Defiant Technologies
42,hb_id,
42,hb_name,
43,cat_tla,DEL
43,cat_name,DeltaTrak
43,cat_name1,DeltaTrak Inc
43,cat_name2,DeltaTRAK
43,cat_name3,Delta Trak
43,cat_uri,deltatrak
43,bb_name,Deltatrak
43,hb_id,46
43,hb_name,DeltaTRAK Inc.
44,cat_tla,DIS
44,cat_name,Digi-Sense
44,cat_name,Digi Sense
44,cat_uri,digi-sense
44,bb_name,Digi-Sense (Cole-Parmer)
44,hb_id,1724
44,hb_name,Digi-Sense
45,cat_tla,DGW
45,cat_name,DigiWeigh
45,cat_uri,digiweigh
45,bb_name,DigiWeigh
45,hb_id,1092
45,hb_name,DigiWeigh
46,cat_tla,DIX
46,cat_name,Dixon Valve
46,cat_name1,Dixon Valve & Coupling
46,cat_name2,Dixon
46,cat_name3,"Dixon Valve & Coupling Company, LLC"
46,cat_uri,dixon-valve
46,bb_name,Dixon Valve
46,hb_id,850
46,hb_name,"Dixon Valve & Coupling Company, LLC"
47,cat_tla,DWY
47,cat_name,Dwyer Instruments
47,cat_name1,Dwyer Instruments Inc
47,cat_name2,Dwyer
47,cat_uri,dwyer
47,bb_name,"Dwyer Instruments, Inc."
47,hb_id,233
47,hb_name,Dwyer
48,cat_tla,EIN
48,cat_name,E-Instruments
48,cat_name1,E Instruments International
48,cat_name2,E Instruments
48,cat_uri,e-instruments
48,bb_name,E-Instruments
48,hb_id,852
48,hb_name,"E Instruments International, LLC"
49,cat_tla,EAS
49,cat_name,Eastwood Company
49,cat_name1,Eastwood
49,cat_uri,eastwood-company
49,bb_name,Eastwood Company
49,hb_id,1944
49,hb_name,The Eastwood Company
50,cat_tla,ECL
50,cat_name,Eclipse Tools
50,cat_name1,Eclipse
50,cat_uri,eclipse-tools
50,cat_uri1,-eclipse-tools-
50,bb_name,Eclipse Tools
50,hb_id,825
50,hb_name,Eclipse Tools
51,cat_tla,ECO
51,cat_name,Ecom
51,cat_name1,ECOM America
51,cat_name2,ECOM USA
51,cat_uri,ecom
51,bb_name,Ecom
51,hb_id,529
51,hb_name,ECOM America Ltd.
52,cat_tla,EET
52,cat_name,EE Tools
52,cat_name1,EETools Corporation
52,cat_name2,EETools
52,cat_uri,ee-tools
52,bb_name,EE-Tools
52,hb_id,853
52,hb_name,"EE Tools, Inc"
53,cat_tla,ELE
53,cat_name,Elenco
53,cat_name1,Elenco Electronics Inc
53,cat_name2,Elenco Electronics
53,cat_uri,elenco
53,bb_name,Elenco
53,hb_id,854
53,hb_name,Elenco Electronics Inc.
54,cat_tla,ELG
54,cat_name,Elga LabWater
54,cat_name1,ELGA Veiola
54,cat_name2,ELGA
54,cat_uri,elga-labwater
54,bb_name,Elga LabWater
54,hb_id,1025
54,hb_name,ELGA
55,cat_tla,EMP
55,cat_name,Emperor Aquatics
55,cat_name1,Emperor Aquatics Inc
55,cat_uri,emperor-aquatics
55,bb_name,Emperor Aquatics
55,hb_name,Emperor Aquatics
56,cat_tla,ENE
56,cat_name,Enerac
56,cat_name1,Enerac Inc
56,cat_uri,enerac
56,bb_name,Enerac
56,hb_id,467
56,hb_name,Enerac
57,cat_tla,EVE
57,cat_name,Ever-Tite
57,cat_name1,Ever-Tite Coupling Products
57,cat_name2,APG Ever-Tite
57,cat_uri,ever-tite
57,bb_name,Ever-Tite
57,hb_id,1132
57,hb_name,Ever-Tite
58,cat_tla,EXT
58,cat_name,Extech
58,cat_name1,Extech Instruments
58,cat_uri,extech
58,cat_uri1,-extech-
58,bb_name,Extech
58,hb_id,980
58,hb_name,Extech
59,cat_tla,EZD
59,cat_name,EZ Digital
59,cat_name1,EZ-Digital
59,cat_uri,ez-digital
59,bb_name,EZ Digital
59,hb_id,1134
59,hb_name,EZ Digital
60,cat_tla,FAL
60,cat_name,FallTech
60,cat_name1,Falltech
60,cat_name2,Fall Tech
60,cat_uri,falltech
60,bb_name,FallTech
60,hb_id,27
60,hb_name,FallTech
61,cat_tla,FIE
61,cat_name,Fieldpiece
61,cat_name1,Fieldpiece Instruments Inc
61,cat_name2,Fieldpiece Instruments
61,cat_uri,fieldpiece
61,bb_name,Fieldpiece
61,hb_id,855
61,hb_name,Fieldpiece
62,cat_tla,FJM
62,cat_name,FJM Security
62,cat_name1,FJM Security Products
62,cat_name2,FJM
62,cat_uri,fjm-security-products
62,bb_name,FJM Security Products
62,hb_id,5
62,hb_name,FJM Security Products
63,cat_tla,FLI
63,cat_name,Flir
63,cat_name1,FLIR Systems
63,cat_name2,Flir Systems
63,cat_uri,flir
63,cat_uri1,-flir-
63,bb_name,Flir
63,hb_id,28
63,hb_name,FLIR Commercial Systems
64,cat_tla,GEN
64,cat_name,General Tools
64,cat_name1,General Tools & Instruments LLC
64,cat_name2,General Tools & Instruments
64,cat_uri,general-tools
64,bb_name,General Tools
64,bb_name2,General
64,hb_id,856
64,hb_name,General Tools LLC
65,cat_tla,GMI
65,cat_name,GMI
65,cat_name1,Gas Measurement Instruments Ltd
65,cat_name2,Gas Measurement Instruments
65,cat_uri,gmi
65,bb_name,GMI
65,hb_id,1338
65,hb_name,"Gas Measurement Instruments (GMI, Detcon)"
66,cat_tla,HAN
66,cat_name,Hanna Instruments
66,cat_name1,HANNA Instruments
66,cat_name2,Hanna
66,cat_uri,hanna-instruments
66,bb_name,Hanna Instruments
66,hb_id,24
66,hb_name,Hanna Instruments
67,cat_tla,HFS
67,cat_name,HF Scientific
67,cat_name1,HF scientific
67,cat_uri,hf-scientific
67,bb_name,HF Scientific
67,hb_id,631
67,hb_name,HF Scientific
68,cat_tla,HID
68,cat_name,HID Global
68,cat_name1,HID Global Corporation
68,cat_name2,HID
68,cat_name3,HID Global Corp
68,cat_uri,hid-global
68,bb_name,HID Global - Fargo
68,hb_id,937
68,hb_name,HID Global
69,cat_tla,HUR
69,cat_name,Hurricone
69,cat_name1,HURRICONE
69,cat_uri,hurricone
69,bb_name,Hurricone
69,hb_id,857
69,hb_name,Hurricone
70,cat_tla,IDL
70,cat_name,Ideal
70,cat_name1,Ideal Industries Inc
70,cat_name2,Ideal Industries
70,cat_uri,ideal
70,cat_uri1,-ideal-
70,bb_name,Ideal
70,hb_id,859
70,hb_name,Ideal Industries Inc.
71,cat_tla,IKA
71,cat_name,Ika Works
71,cat_name1,IKA Works Inc
71,cat_name2,IKA
71,cat_name3,Ika
71,cat_uri,ika-works
71,bb_name,Ika Works
71,hb_id,124
71,hb_name,"IKA Works, Inc."
72,cat_tla,IMR
72,cat_name,IMR Environmental Equipment
72,cat_name1,IMR Environmental Equipment Inc
72,cat_name2,IMR
72,cat_uri,imr-environmental-equipment
72,bb_name,IMR Environmental Equipment
72,hb_id,1824
72,hb_name,"IMR Environmental Equipment, Inc."
73,cat_tla,IND
73,cat_name,Industrial Test Systems
73,cat_name1,Industrial Test Systems Inc
73,cat_name2,ITS
73,cat_uri,industrial-test-systems
73,bb_name,Industrial Test Systems
73,hb_id,958
73,hb_name,"Industrial Test Systems, Inc. (ITS)"
74,cat_tla,ITI
74,cat_name,"Instrument Technology, Inc."
74,cat_name1,Instrument Technology Inc
74,cat_name2,ITI
74,cat_uri,instrument-technology-inc
74,bb_name,Instrument Technology
74,hb_id,1259
74,hb_name,"Instrument Technology, Inc. (ITI)"
75,cat_tla,INT
75,cat_name,Intelligent
75,cat_name1,Intelligent Weighing Technology
75,cat_name2,Intelligent Weighing
75,cat_uri,intelligent
75,bb_name,Intelligent
75,hb_id,1099
75,hb_name,"Intelligent Weighing Technology, Inc."
76,cat_tla,IRR
76,cat_name,Irrometer
76,cat_name1,IRROMETER Company Inc
76,cat_name2,IRROMETER
76,cat_uri,irrometer
76,bb_name,Irrometer
76,hb_id,556
76,hb_name,"Irrometer Company, Inc."
77,cat_tla,ITW
77,cat_name,ITW Thermal Films
77,cat_name1,ITW
77,cat_uri,itw-thermal-films
77,bb_name,ITW Thermal Films
77,hb_id,72
77,hb_name,ITW Thermal Films
78,cat_tla,KAL
78,cat_name,Kaltman Creations
78,cat_name1,Kaltman Creations LLC
78,cat_name2,Kaltman
78,cat_uri,kaltman-creations
78,bb_name,Kaltman
78,hb_id,89
78,hb_name,Kaltman Creations LLC
79,cat_tla,KAN
79,cat_name,Kanomax
79,cat_name1,Kanomax USA
79,cat_uri,kanomax
79,cat_uri1,-kanomax-
79,bb_name,Kanomax
79,hb_id,20
79,hb_name,Kanomax USA
80,cat_tla,KEL
80,cat_name,Keller
80,cat_uri,keller
80,bb_name,Keller
80,hb_id,830
80,hb_name,Werner Co.
81,cat_tla,KES
81,cat_name,Kestrel
81,cat_name1,Nielsen-Kellerman Kestrel
81,cat_uri,kestrel
81,cat_uri1,-kestrel-
81,bb_name,Kestrel
81,hb_id,451
81,hb_name,Kestrel
82,cat_tla,KIT
82,cat_name,Kitagawa
82,cat_name1,Kitagawa-America
82,cat_name2,Kitagawa America
82,cat_uri,kitagawa
82,bb_name,Kitagawa
82,hb_id,1457
82,hb_name,Kitagawa-America
83,cat_tla,KNI
83,cat_name,Knipex
83,cat_name1,Knipex Tools LP
83,cat_name2,Knipex Tools
83,cat_uri,knipex
83,bb_name,Knipex
83,hb_id,824
83,hb_name,KNIPEX Tools LP
84,cat_tla,LAC
84,cat_name,La-Co
84,cat_name1,LA-CO Industries Inc
84,cat_name2,La-Co Industries
84,cat_uri,la-co
84,bb_name,La-Co
84,hb_id,811
84,hb_name,"LA-CO Industries, Inc."
85,cat_tla,LAB
85,cat_name,Lab Companion
85,cat_name1,Jeiotech Lab Companion
85,cat_name2,Jeio Tech Lab Companion
85,cat_uri,lab-companion
85,bb_name,Lab Companion
85,hb_id,1604
85,hb_name,Lab Companion
86,cat_tla,LAM
86,cat_name,LaMotte
86,cat_name1,LaMotte Company
86,cat_uri,lamotte
86,bb_name,LaMotte
86,hb_id,861
86,hb_name,LaMotte
87,cat_tla,LIG
87,cat_name,Lignomat
87,cat_name1,Lignomat USA Ltd
87,cat_name2,Lignomat USA
87,cat_uri,lignomat
87,bb_name,Lignomat
87,hb_id,1316
87,hb_name,Lignomat USA Ltd.
88,cat_tla,LOV
88,cat_name,Love Controls
88,cat_name1,Dwyer Love Controls
88,cat_uri,lo-ve-controls
88,bb_name,Love Controls
88,hb_id,1118
88,hb_name,Love Controls
89,cat_tla,LOB
89,cat_name,Lovibond
89,cat_name1,Lovibond Tintometer
89,cat_name2,Lovibond Orbeco Hellige
89,cat_uri,lovibond
89,bb_name,Lovibond
89,hb_id,524
89,hb_name,Lovibond
90,cat_tla,LWS
90,cat_name,LW Scientific
90,cat_name1,LW Scientific Inc
90,cat_name2,LW Scientific Inc.
90,cat_uri,lw-scientific
90,bb_name,LW Scientific
90,hb_id,106
90,hb_name,LW Scientific
91,cat_tla,MAH
91,cat_name,Mahr
91,cat_name1,Mahr Federal Inc.
91,cat_uri,mahr-federal
91,bb_name,Mahr Federal
91,hb_id,33
91,hb_name,Mahr Federal Inc.
92,cat_tla,MAR
92,cat_name,Markal
92,cat_name1,LA-CO Markal
92,cat_name2,La-Co Markal
92,cat_uri,markal
92,bb_name,Markal
92,hb_id,810
92,hb_name,Markal
93,cat_tla,MAS
93,cat_name,Master Lock
93,cat_name1,Master Lock Company
93,cat_name2,MasterLock
93,cat_uri,master-lock
93,bb_name,Master Lock
93,hb_id,56
93,hb_name,Master Lock
94,cat_tla,MAT
94,cat_name,Mastercool
94,cat_name1,Mastercool Inc
94,cat_name2,Master Cool
94,cat_uri,mastercool
94,bb_name,Mastercool
94,hb_id,229
94,hb_name,Mastercool Inc.
95,cat_tla,MEC
95,cat_name,Mercoid
95,cat_name1,Dwyer Mercoid
95,cat_uri,mercoid
95,bb_name,Mercoid Controls
95,hb_id,3
95,hb_name,Mercoid Controls
96,cat_tla,MER
96,cat_name,Meriam
96,cat_name1,Meriam Process Technologies
96,cat_uri,meriam
96,bb_name,Meriam
96,hb_id,862
96,hb_name,Meriam Process Technologies
97,cat_tla,MET
97,cat_name,Met One Instruments
97,cat_name1,Met One Instruments Inc
97,cat_name2,Met One
97,cat_uri,met-one-instruments
97,bb_name,Met One Instruments
97,hb_id,548
97,hb_name,"Met One Instruments, Inc."
98,cat_tla,MIL
98,cat_name,Milwaukee Instruments
98,cat_name1,Milwaukee Instruments Inc
98,cat_name2,Milwaukee
98,cat_uri,milwaukee-instruments
98,bb_name,Milwaukee Instruments
98,hb_id,863
98,hb_name,"Milwaukee Instruments, Inc."
99,cat_tla,NEW
99,cat_name,Newcon Optik
99,cat_name1,Newcon
99,cat_uri,newcon-optik
99,bb_name,Newcon Optik
99,hb_id,4
99,hb_name,NEWCON OPTIK
100,cat_tla,NIS
100,cat_name,Nissen
100,cat_name1,J.P. Nissen Company
100,cat_name2,Nissen Company
100,cat_name3,JP Nissen Company
100,cat_uri,nissen
100,bb_name,Nissen
100,hb_id,1951
100,hb_name,Nissen
101,cat_tla,NMC
101,cat_name,NMC
101,cat_name1,National Marker Company
101,cat_name2,National Marker
101,cat_uri,nmc
101,bb_name,NMC
101,hb_id,75
101,hb_name,National Marker Company (NMC)
102,cat_tla,OAK
102,cat_name,Oakton
102,cat_name1,OAKTON Instruments
102,cat_name2,Oakton Instruments
102,cat_uri,oakton
102,bb_name,Oakton
102,hb_id,50
102,hb_name,Oakton Instruments
103,cat_tla,OBE
103,cat_name,Oberon Company
103,cat_name1,Oberon
103,cat_uri,oberon-company
103,bb_name,Oberon Company
103,hb_id,864
103,hb_name,Oberon Company
104,cat_tla,OEL
104,cat_name,OEL Insulated Tools
104,cat_name1,OEL Worldwide Industries
104,cat_name2,OEL
104,cat_uri,oel-insulated-tools
104,bb_name,OEL
104,hb_id,865
104,hb_name,"OEL Worldwide Industries, Llc"
105,cat_tla,OHA
105,cat_name,Ohaus
105,cat_name1,Ohaus Corporation
105,cat_uri,ohaus
105,cat_uri1,-ohaus-
105,bb_name,Ohaus
105,hb_id,151
105,hb_name,Ohaus
106,cat_tla,PAL
106,cat_name,Palmer Wahl
106,cat_name1,Palmer Wahl Instrumentation Group
106,cat_name2,Palmer Wahl Instruments
106,cat_name3,Palmer-Wahl
106,cat_uri,palmer-wahl
106,bb_name,Palmer Wahl
106,hb_id,41
106,hb_name,Palmer Wahl
107,cat_tla,PFA
107,cat_name,Pfannenberg
107,cat_name1,Pfannenberg Incorporated
107,cat_name2,Pfannenberg Inc
107,cat_uri,pfannenberg
107,bb_name,Pfannenberg
107,hb_id,1030
107,hb_name,"Pfannenberg, Inc."
108,cat_tla,POW
108,cat_name,PowerSight
108,cat_name1,Summit Technology PowerSight
108,cat_name2,Summit Technology
108,cat_uri,powersight
108,cat_uri1,-powersight-
108,bb_name,PowerSight
108,hb_id,866
108,hb_name,PowerSight Summit Technology INC
109,cat_tla,PRX
109,cat_name,Proximity
109,cat_name1,Dwyer Proximity
109,cat_uri,proximity
109,bb_name,Proximity
109,hb_id,1120
109,hb_name,Proximity
110,cat_tla,PSI
110,cat_name,Psiber
110,cat_name1,Psiber Data Systems Inc
110,cat_name2,Psiber Data Systems
110,cat_uri,psiber
110,bb_name,Psiber
110,hb_id,520
110,hb_name,Psiber Data Systems
110,hb_name2,Psiber Data Systems Inc.
111,cat_tla,RAD
111,cat_name,Radwag
111,cat_name1,RADWAG
111,cat_uri,radwag
111,bb_name,Radwag
111,hb_id,1195
111,hb_name,Radwag
112,cat_tla,REE
112,cat_name,REED Instruments
112,cat_name1,REED Instruments
112,cat_name2,Reed Instruments
112,cat_uri,reed
112,bb_name,Reed
112,hb_id,868
112,hb_name,REED Instruments
113,cat_tla,SCH
113,cat_name,Schonstedt
113,cat_name1,Schonstedt Instrument Company
113,cat_name2,Schonstedt Instrument
113,cat_uri,schonstedt
113,bb_name,Schonstedt
113,hb_id,870
113,hb_name,Schonstedt
114,cat_tla,SCI
114,cat_name,Scientech
114,cat_name1,Scientech Incorporated
114,cat_name2,Scientech Inc
114,cat_uri,scientech
114,bb_name,Scientech
114,hb_id,117
114,hb_name,Scientech
115,cat_tla,SII
115,cat_name,Scientific Industries
115,cat_name1,Scientific Industries Inc
115,cat_uri,scientific-industries
115,bb_name,Scientific Industries
115,hb_id,1076
115,hb_name,Scientific Industries
116,cat_tla,SCL
116,cat_name,Scilogex
116,cat_name1,Scilogex LLC
116,cat_name2,SCILOGEX
116,cat_uri,scilogex
116,cat_uri1,-scilogex-
116,bb_name,Scilogex
116,hb_id,800
116,hb_name,Scilogex
117,cat_tla,SLK
117,cat_name,Scissor-Lok
117,cat_name1,Scissor Lok
117,cat_uri,scissor-lok
117,bb_name,Scissor Lok
117,hb_id,871
117,hb_name,Scissor-Lok
118,cat_tla,SEI
118,cat_name,SE International
118,cat_name1,S.E. International Inc
118,cat_name2,Radiation Alert
118,cat_uri,se-international
118,bb_name,SE International
118,hb_id,550
118,hb_name,SE International (S.E.)
119,cat_tla,SER
119,cat_name,ServoDyne
119,cat_name1,Servodyne
119,cat_name2,SERVODYNE
119,cat_uri,servodyne
119,bb_name,ServoDyne
119,hb_id,1130
119,hb_name,ServoDyne
120,cat_tla,SOE
120,cat_name,Soeks
120,cat_uri,soeks
120,bb_name,Soeks
120,hb_id,909
120,hb_name,SoeKs
121,cat_tla,SPE
121,cat_name,Sper Scientific
121,cat_name1,SPER Scientific
121,cat_name2,Sper
121,cat_uri,sper-scientific
121,bb_name,Sper Scientific
121,hb_id,872
121,hb_name,Sper Scientific
122,cat_tla,SPM
122,cat_name,SPM Instrument
122,cat_name1,SPM Instrument AB
122,cat_name2,SPM
122,cat_uri,spm-instrument
122,bb_name,SPM Instrument
122,hb_id,555
122,hb_name,SPM Instrument AB
123,cat_tla,STI
123,cat_name,Stir-Pak
123,cat_name1,Stir Pak
123,cat_uri,stir-pak
123,bb_name,Stir-Pak
123,hb_id,369
123,hb_name,Stir-Pak
124,cat_tla,TAL
124,cat_name,Talboys
124,cat_name1,Troemner Talboys
124,cat_uri,talboys
124,bb_name,Talboys
124,hb_id,1063
124,hb_name,Talboys
125,cat_tla,TAS
125,cat_name,"Tasco, Inc."
125,cat_name1,Tasco Incorporated
125,cat_name2,Tasco
125,cat_uri,tasco-inc
125,bb_name,Tasco
125,hb_id,533
125,hb_name,Tasco
126,cat_tla,TED
126,cat_name,The Energy Detective
126,cat_uri,ted
126,bb_name,TED
126,hb_id,873
126,hb_name,The Energy Detective (TED)
126,hb_name1,The Energy Detective Inc
126,hb_name2,TED
127,cat_tla,TES
127,cat_name,Testo
127,cat_name1,"Testo, Inc."
127,cat_name2,Testo Inc
127,cat_uri,testo
127,bb_name,Testo
127,hb_id,874
127,hb_name,Testo
128,cat_tla,TOR
128,cat_name,Torbal
128,cat_name1,TORBAL
128,cat_uri,torbal
128,bb_name,Torbal
128,hb_id,1112
128,hb_name,Torbal (Fulcrum Inc.)
129,cat_tla,TPI
129,cat_name,TPI
129,cat_name1,Test Products International Inc
129,cat_name2,Test Products International
129,cat_uri,tpi
129,bb_name,TPI
129,hb_id,816
129,hb_name,Test Products International (TPI)
130,cat_tla,TMX
130,cat_name,Tramex
130,cat_name1,Tramex Ltd
130,cat_name2,TRAMEX
130,cat_uri,tramex
130,bb_name,Tramex
130,hb_id,829
130,hb_name,Tramex
131,cat_tla,TRO
131,cat_name,Troemner
131,cat_name1,Henry Troemner LLC
131,cat_name2,Troemner Henry
131,cat_uri,troemner
131,bb_name,Troemner
131,hb_id,1995
131,hb_name,Troemner
132,cat_tla,UEI
132,cat_name,UEi
132,cat_name1,UEi Test Instruments
132,cat_uri,uei
132,cat_uri1,-uei-
132,bb_name,UEi
132,hb_id,819
132,hb_name,"Universal Enterprises, Inc. (UEi)"
133,cat_tla,UNI
133,cat_name,Unisource
133,cat_name1,Unisource Corporation
133,cat_name2,Unisource Corp
133,cat_uri,unisource
133,bb_name,Unisource
133,hb_id,875
133,hb_name,Unisource 21 Corp.
134,cat_tla,USS
134,cat_name,United Scientific Supplies
134,cat_name1,United Scientific Supplies Inc
134,cat_name2,United Scientific
134,cat_uri,united-scientific-supplies
134,bb_name,United Scientific Supplies
134,hb_id,2110
134,hb_name,United Scientific Supplies
135,cat_tla,UNW
135,cat_name,Uniweld
135,cat_name1,Uniweld Products Inc
135,cat_name2,Uniweld Products
135,cat_uri,uniweld
135,bb_name,Uniweld
135,hb_id,676
135,hb_name,UNIWELD
136,cat_tla,VAI
136,cat_name,Vaisala
136,cat_name1,VAISALA
136,cat_uri,vaisala
136,bb_name,Vaisala
136,hb_id,567
136,hb_name,Vaisala
137,cat_tla,VES
137,cat_name,Vestil
137,cat_name1,Vestil Manufacturing
137,cat_uri,vestil
137,bb_name,Vestil
137,hb_id,876
137,hb_name,Vestil Manufacturing
138,cat_tla,VIA
138,cat_name,Viasensor
138,cat_name1,VIASENSOR
138,cat_uri,viasensor
138,bb_name,Viasensor
138,hb_id,877
138,hb_name,Viasensor / QED
139,cat_tla,VIS
139,cat_name,Vision Engineering
139,cat_name1,Vision Engineering Inc
139,cat_uri,vision-engineering
139,bb_name,Vision
139,hb_id,1740
139,hb_name,Vision Engineering
140,cat_tla,WAN
140,cat_name,W.E. Anderson
140,cat_name1,Dwyer W.E. Anderson
140,cat_name2,WE Anderson
140,cat_uri,w-e-anderson
140,bb_name,W.E.Anderson
140,hb_id,1121
140,hb_name,W.E.Anderson
141,cat_tla,WER
141,cat_name,Werner
141,cat_uri,werner
141,bb_name,"Werner (Green Bull, Keller)"
141,hb_id,830
141,hb_name,Werner Co.
142,cat_tla,WHE
142,cat_name,Wheeleez
142,cat_name1,Wheeleez Inc
142,cat_uri,wheeleez
142,bb_name,Wheeleez
142,hb_id,879
142,hb_name,Wheeleez
143,cat_tla,WLM
143,cat_name,Wilcom
143,cat_name1,Wilcom Inc
143,cat_uri,wilcom
143,bb_name,Wilcom
143,hb_id,880
143,hb_name,Wilcom
144,cat_tla,WOH
144,cat_name,Wohler
144,cat_name1,Wohler USA Inc
144,cat_name2,Wohler USA
144,cat_uri,wohler
144,cat_uri1,-wohler-
144,bb_name,Wohler
144,hb_id,581
144,hb_name,Wohler USA Inc.
145,cat_tla,XEL
145,cat_name,Xeltek
145,cat_name1,Xeltek Inc
145,cat_name2,XELTEK
145,cat_uri,xeltek
145,bb_name,Xeltek
145,hb_id,415
145,hb_name,Xeltek
146,cat_tla,YAM
146,cat_name,Yamato
146,cat_name1,Yamato Scientific America Inc
146,cat_name2,Yamato Scientific
146,cat_uri,yamato
146,bb_name,Yamato
146,hb_id,102
146,hb_name,Yamato Scientific
147,cat_tla,YEL
147,cat_name,Yellow Jacket
147,cat_name1,YELLOW JACKET
147,cat_name2,Ritchie Yellow Jacket
147,cat_uri,yellow-jacket
147,cat_uri1,-yellow-jacket-
147,bb_name,Yellow Jacket
147,hb_id,482
147,hb_name,Yellow Jacket
148,cat_tla,YOK
148,cat_name,Yokogawa
148,cat_name1,Yokogawa Corporation of America
148,cat_uri,yokogawa
148,bb_name,Yokogawa
148,hb_id,1257
148,hb_name,Yokogawa
149,cat_tla,ZEB
149,cat_name,Zebra
149,cat_name1,Zebra Technologies Corporation
149,cat_name2,Zebra Technologies
149,cat_name3,Zebra (ZIH Corp.)
149,cat_uri,zebra
149,bb_name,Zebra
149,hb_id,981
149,hb_name,Zebra Technologies
150,cat_tla,RIC
150,cat_name,Rice Lake
150,cat_name1,Rice Lake Weighing Systems
150,cat_name2,Rice Lake Weighing
150,cat_uri,rice-lake
150,bb_name,Rice Lake
150,hb_id,1137
150,hb_name,Rice Lake
151,cat_tla,VEE
151,cat_name,Vee Gee Scientific
151,cat_name1,VEE GEE Scientific Inc
151,cat_name2,Vee Gee
151,cat_uri,vee-gee-scientific
151,bb_name,Vee Gee Scientific
151,hb_id,1156
151,hb_name,VeeGee Scientific
152,cat_tla,MAK
152,cat_name,MakerBot
152,cat_name1,MakerBot Industries
152,cat_name2,Maker Bot
152,cat_uri,makerbot
152,bb_name,MakerBot
152,hb_id,37
152,hb_name,MakerBot
153,cat_tla,GUA
153,cat_name,Guardian Equipment
153,cat_name1,Guardian
153,cat_uri,guardian-equipment
153,bb_name,Guardian Equipment
153,hb_id,2025
153,hb_name,Guardian Equipment
154,cat_tla,PWZ
154,cat_name,Power Wizard
154,cat_name1,Powerwizard
154,cat_uri,power-wizard
154,bb_name,Power Wizard
154,hb_id,2074
154,hb_name,Power Wizard
155,cat_tla,AGE
155,cat_name,Agela Technologies
155,cat_name1,Bonna-Agela Technologies
155,cat_name2,Bonna Agela
155,cat_uri,agela-technologies
155,bb_name,Bonna-Agela Technologies
155,hb_id,1825
155,hb_name,Bonna-Agela
156,cat_tla,DAV
156,cat_name,Davis Instruments
156,cat_name1,Davis Instruments Corp
156,cat_name2,Davis
156,cat_uri,davis-instruments
156,cat_uri1,-davis-instruments-
156,bb_name,Davis Instruments
156,hb_id,542
156,hb_name,Davis Instruments
157,cat_tla,VAC
157,cat_name,Vacuubrand
157,cat_name1,VACUUBRAND Inc
157,cat_name2,VACUUBRAND
157,cat_uri,vacuubrand
157,bb_name,Vacuubrand
157,hb_id,1336
157,hb_name,Vacuubrand
158,cat_tla,POL
158,cat_name,PolyScience
158,cat_name1,Polyscience
158,cat_uri,polyscience
158,bb_name,PolyScience
158,hb_id,1220
158,hb_name,PolyScience
159,cat_tla,ABT
159,cat_name,American Beauty Tools
159,cat_name1,American Beauty Soldering Tools
159,cat_name2,American Beauty
159,cat_uri,american-beauty-tools
159,cat_uri1,-american-beauty-tools-
159,bb_name,American Beauty Tools
159,hb_id,2051
159,hb_name,American Beauty Tools
160,cat_tla,OKI
160,cat_name,Oki Data
160,cat_name1,Oki Data Americas Inc
160,cat_name2,OKI
160,cat_name3,OKI Data
160,cat_uri,oki-data
160,bb_name,Oki Data
160,hb_id,381
160,hb_name,Oki Data
161,cat_tla,CLE
161,cat_name,Cleveland
161,cat_name1,Greenfield Industries Cleveland
161,cat_name2,Greenfield Cleveland
161,cat_uri,cleveland
161,bb_name,Cleveland
161,hb_id,1040
161,hb_name,Cleveland
162,cat_tla,EOT
162,cat_name,EOTech
162,cat_name1,EOTech Inc
162,cat_uri,eotech
162,bb_name,EOTech
162,hb_id,2088
162,hb_name,EOTech
163,cat_tla,ZIN
163,cat_name,Zing Green Products
163,cat_name1,ZING Products
163,cat_name2,Zing
163,cat_uri,zing-green-products
163,bb_name,Zing Green Products
163,hb_id,2105
163,hb_name,Zing Green Safety Products
164,cat_tla,DAT
164,cat_name,Datcon
164,cat_uri,datcon
164,hb_id,1101
164,hb_name,Datcon
164,bb_name,Datcon
165,cat_tla,AIW
165,cat_name,Airwolf 3D
165,cat_name1,Airwolf 3D Printers
165,cat_name2,AIRWOLF 3D
165,cat_uri,airwolf-3d
165,bb_name,Airwolf 3D
165,hb_id,964
165,hb_name,Airwolf 3D
166,hb_id,1148
166,hb_name,"Chemplex Industries, Inc."
167,hb_id,849
167,hb_name,Dixie Poly Drum Corp.
168,hb_id,49
168,hb_name,"Dry Pak Industries, Inc."
169,hb_id,2114
169,hb_name,FJS Thermal Transfer Ribbon
170,cat_tla,HEL
170,cat_name,Helukabel USA
170,cat_name1,HELUKABEL
170,cat_name2,Helukabel
170,cat_uri,helukabel-usa
170,bb_name,Helukabel USA
170,hb_id,2099
170,hb_name,Helukabel USA
171,hb_id,408
171,hb_name,Sperry Instruments
172,cat_tla,STW
172,cat_name,Stewart Warner
172,cat_uri,stewart-warner
172,bb_name,Stewart Warner
172,hb_id,1113
172,hb_name,Stewart Warner
173,hb_id,1892
173,hb_name,test manuf new
174,hb_id,893
174,hb_name,Hioki
175,cat_tla,CDV
175,cat_name,Control Devices
175,cat_name1,Control Devices LLC
175,cat_uri,control-devices
175,bb_name,Control Devices
175,hb_id,2045
175,hb_name,Control Devices
176,cat_tla,MRK
176,cat_name,Mark-10
176,cat_name1,Mark 10
176,cat_uri,mark-10
176,bb_name,Mark-10
176,hb_id,431
176,hb_name,Mark-10
177,cat_tla,PLS
177,cat_name,Pacific Laser Systems
177,cat_name1,PLS
177,cat_uri,pacific-laser-systems
177,bb_name,Pacific Laser Systems
177,hb_id,2107
177,hb_name,"Pacific Laser Systems, PLS"
178,cat_tla,TRK
178,cat_name,Truelok
178,cat_uri,truelok
178,bb_name,Truelok
178,hb_id,2265
178,hb_name,Truelok
179,cat_tla,ROT
179,cat_name,Rothenberger
179,cat_name1,ROTHENBERGER USA INC
179,cat_name2,Rothenberger USA
179,cat_uri,rothenberger
179,bb_name,Rothenberger
179,hb_id,2240
179,hb_name,Rothenberger USA
180,cat_tla,GRN
180,cat_name,Greenlee
180,cat_name1,Greenlee Textron
180,cat_name2,Greenlee Textron Inc
180,cat_uri,greenlee
180,bb_name,Greenlee
180,hb_id,397
180,hb_name,Greenlee
181,cat_tla,JUL
181,cat_name,Julabo
181,cat_name1,JULABO USA Inc.
181,cat_name2,Julabo USA
181,cat_uri,julabo
181,bb_name,Julabo
181,hb_id,1844
181,hb_name,Julabo
182,cat_tla,VDO
182,cat_name,VDO
182,cat_name1,VDO Instruments
182,cat_uri,vdo
182,bb_name,VDO
182,hb_id,972
182,hb_name,VDO
183,cat_tla,BUR
183,cat_name,Burndy
183,cat_name1,Burndy LLC
183,cat_uri,burndy
183,bb_name,Burndy
183,hb_id,571
183,hb_name,Burndy
184,cat_tla,GQF
184,cat_name,GQF Manufacturing
184,cat_name1,GQF Manufacturing Co
184,cat_name2,GQF
184,cat_uri,gqf-manufacturing
184,cat_uri1,-gqf-manufacturing-
184,bb_name,GQF Manufacturing
184,hb_id,1057
184,hb_name,GQF Manufacturing Company
185,cat_tla,SAR
185,cat_name,Sartorius
185,cat_name1,Sartorius Corporation
185,cat_uri,sartorius
185,bb_name,Sartorius Corporation
185,hb_id,13
185,hb_name,Sartorius
186,cat_tla,WEL
186,cat_name,Welch
186,cat_name1,Welch Vacuum
186,cat_uri,welch
186,bb_name,Welch
186,hb_id,1455
186,hb_name,Welch Ilmvac
187,cat_tla,CYC
187,cat_name,CycloMop
187,cat_name1,Cyclo Mop
187,cat_uri,cyclomop
187,bb_name,CycloMop
187,hb_id,2308
187,hb_name,CycloMop
188,cat_tla,AMO
188,cat_name,AirMover
188,cat_name1,Air Mover
188,cat_uri,airmover
188,bb_name,AirMover
188,hb_id,2309
188,hb_name,AirMover
189,cat_tla,MIN
189,cat_name,MiniAirMover
189,cat_name1,Mini Air Mover
189,cat_uri,miniairmover
189,bb_name,MiniAirMover
189,hb_id,2310
189,hb_name,MiniAirMover
190,cat_tla,MIC
190,cat_name,Microflex
190,cat_name1,Microflex LLC
190,cat_uri,microflex
190,bb_name,Microflex
190,hb_id,2304
190,hb_name,Microflex
191,cat_tla,LIT
191,cat_name,Little Giant
191,cat_name1,Little Giant Pump Company
191,cat_name2,Little Giant (thru Platsky)
191,cat_uri,little-giant
191,bb_name,Little Giant
191,hb_id,2169
191,hb_name,Little Giant (thru Platsky)
192,cat_tla,RMY
192,cat_name,R. M. Young
192,cat_name1,R. M. Young Company
192,cat_name2,RM Young Company
192,cat_name3,RM Young
192,cat_uri,r-m-young-company
192,bb_name,R. M. Young Company
192,hb_id,2294
192,hb_name,RM Young
193,cat_tla,OPT
193,cat_name,Optima Scale
193,cat_name1,Optima Scale Manufacturing
193,cat_name2,Optima Scale Manufacturing Inc
193,cat_uri,optima-scale
193,bb_name,Optima Scale
193,hb_id,1109
193,hb_name,Optima Scale
194,cat_tla,CMB
194,cat_name,Cembre
194,cat_name1,Cembre Inc.
194,cat_uri,cembre
194,bb_name,Cembre Inc.
194,hb_id,1847
194,hb_name,Cembre Inc.
195,cat_tla,STR
195,cat_name,Stranco
195,cat_name1,Stranco Inc.
195,cat_uri,stranco
195,bb_name,Stranco
195,hb_id,1010
195,hb_name,Stranco
196,cat_tla,SAT
196,cat_name,SATO America
196,cat_name1,Sato
196,cat_name2,SATO
196,cat_uri,sato-america
196,cat_uri1,-sato-
196,bb_name,SATO America
196,hb_id,23
196,hb_name,SATO America
197,cat_tla,FLO
197,cat_name,Flowline
197,cat_name1,Flowline Inc.
197,cat_name2,Flowline Inc
197,cat_uri,flowline
197,bb_name,Flowline
197,hb_id,3405
197,hb_name,Flowline
198,cat_tla,1BA
198,cat_name,Bacharach
198,cat_uri,-bacharach-
198,bb_name,BACHARACH
198,hb_id,828
198,hb_name,Bacharach
199,cat_tla,1BS
199,cat_name,Barska
199,cat_uri,-barska-
199,bb_name,Barska
199,hb_id,899
199,hb_name,Barska
200,cat_tla,1DA
200,cat_name,Dawson
200,cat_uri,-dawson-
200,bb_name,Dawson
200,hb_id,1451
200,hb_name,"Dawson Tools, Inc."
201,cat_tla,1EX
201,cat_name,Extech
201,cat_uri,-extech-
201,bb_name,Extech
201,hb_id,980
201,hb_name,Extech
202,cat_tla,1ID
202,cat_name,Ideal
202,cat_uri,-ideal-
202,bb_name,Ideal
202,hb_id,859
202,hb_name,Ideal Industries Inc.
203,cat_tla,1KN
203,cat_name,Kanomax
203,cat_uri,-kanomax-
203,bb_name,Kanomax
203,hb_id,20
203,hb_name,Kanomax USA
204,cat_tla,1KS
204,cat_name,Kestrel
204,cat_uri,-kestrel-
204,bb_name,Kestrel
204,hb_id,451
204,hb_name,Kestrel
205,cat_tla,1OH
205,cat_name,Ohaus
205,cat_uri,-ohaus-
205,bb_name,Ohaus
205,hb_id,151
205,hb_name,Ohaus
206,cat_tla,1PW
206,cat_name,PowerSight
206,cat_uri,-powersight-
206,bb_name,PowerSight
206,hb_id,866
206,hb_name,PowerSight
207,cat_tla,1SL
207,cat_name,Scilogex
207,cat_uri,-scilogex-
207,bb_name,Scilogex
207,hb_id,800
207,hb_name,Scilogex
208,cat_tla,1TE
208,cat_name,TED
208,cat_uri,-ted-
208,bb_name,TED
208,hb_id,873
208,hb_name,The Energy Detective (TED)
209,cat_tla,1VS
209,cat_name,Vision Engineering
209,cat_uri,-vision-engineering-
209,bb_name,Vision
209,hb_id,1740
209,hb_name,Vision Engineering
210,cat_tla,FLR
210,cat_name,FLIR
210,cat_uri,-flir-
210,bb_name,Flir
210,hb_id,28
210,hb_name,FLIR Commercial Systems
211,cat_tla,PEC
211,cat_name,Peco
211,cat_name1,Peco Inc.
211,cat_uri,peco
211,bb_name,Peco
211,hb_id,2314
211,hb_name,Peco
212,cat_tla,GFG
212,cat_name,GfG Instrumentation
212,cat_uri,gfg-instrumentation
212,bb_name,GfG Instrumentation
212,hb_id,2195
212,hb_name,GfG Instrumentation
213,cat_tla,FJC
213,cat_name,FJC
213,cat_name1,FJC Inc
213,cat_name2,FJC Inc.
213,cat_name3,FJC Air Conditioning Products
214,cat_name4,FJC (thru M. Eagles Tool Warehouse Inc.)
213,cat_uri,fjc
213,bb_name,FJC
213,hb_id,1309
213,hb_name,FJC (thru M. Eagles Tool Warehouse Inc.)
214,cat_tla,ZOR
214,cat_name,Zortrax
214,cat_uri,zortrax
214,bb_name,Zortrax
214,hb_id,2319
214,hb_name,Zortrax
215,cat_tla,PRO
215,cat_name,Protek
215,cat_name1,GSI-Protek
215,cat_name2,Protek-GSI
215,cat_uri,protek
215,bb_name,Protek (SWG Inc.)
215,hb_id,2231
215,hb_name,Protek (SWG Inc.)
216,cat_tla,FOW
216,cat_name,Fowler
216,cat_name1,Fowler High Precision
216,cat_name2,Fowler Precision
216,cat_uri,fowler
216,bb_name,Fowler
216,hb_id,1863
216,hb_name,Fowler
217,cat_tla,DYN
217,cat_name,Dynalon
217,cat_name1,Dynalon Labware
217,cat_uri,dynalon
217,bb_name,Dynalon
217,hb_id,1131
217,hb_name,Dynalon
218,cat_tla,BIP
218,cat_name,BioPointe Scientific
218,cat_name1,BioPointe
218,cat_uri,biopointe-scientific
218,bb_name,BioPointe Scientific
218,hb_id,2126
218,hb_name,BioPointe Scientific
219,cat_tla,TOP
219,cat_name,Topcon
219,cat_name1,Topcon Positioning Systems
219,cat_uri,topcon
219,cat_uri1,-topcon-
219,bb_name,Topcon
219,hb_id,2149
219,hb_name,Topcon
220,cat_tla,AQU
220,cat_name,Aqua Ultraviolet
220,cat_name1,Aqua UV
220,cat_uri,aqua-ultraviolet
220,bb_name,Aqua UV
220,hb_id,2326
220,hb_name,Aqua UV
221,cat_tla,SAF
221,cat_name,Safeway Hydraulics
221,cat_name1,Safeway
221,cat_uri,safeway-hydraulics
221,bb_name,Safeway Hydraulics
221,hb_id,2020
221,hb_name,SafeWay Hydraulics
222,cat_tla,DIN
222,cat_name,Dino-Lite
222,cat_name1,Dino-Lite Digital Microscope
222,cat_name2,Dino-Lite Microscope
222,cat_uri,dino-lite-digital-microscope
222,cat_uri1,-dino-lite-digital-microscope-
222,bb_name,Dino-Lite
222,hb_id,1070
222,hb_name,Dino-Lite
223,cat_tla,COR
223,cat_name,Corentium
223,cat_uri,corentium
223,bb_name,Corentium
223,hb_id,2430
223,hb_name,Corentium
224,cat_tla,REL
224,cat_name,Rellfaith
224,cat_uri,rellfaith
224,bb_name,Rellfaith
224,hb_id,2379
224,hb_name,Rellfaith
225,cat_tla,CAR
225,cat_name,Carson Optical
225,cat_name1,Carson
225,cat_uri,carson
225,bb_name,Carson Optical
225,hb_id,2457
225,hb_name,Carson
226,cat_tla,1VD
226,cat_name,VDO
226,cat_name1,VDO Instruments
226,cat_uri,-vdo-
226,bb_name,VDO
226,hb_id,972
226,hb_name,VDO
227,cat_tla,BMT
227,cat_name,BMT USA
227,cat_uri,bmt-usa
227,bb_name,BMT USA
227,hb_id,2324
227,hb_name,BMT USA
228,cat_tla,HEA
228,cat_name,Heathrow Scientific
228,cat_uri,heathrow-scientific
228,bb_name,Heathrow Scientific
228,hb_id,1024
228,hb_name,Heathrow Scientific
229,cat_tla,NSC
229,cat_name,National Safety Compliance
229,cat_uri,national-safety-compliance
229,bb_name,National Safety Compliance
229,hb_id,944
229,hb_name,"National Safety Compliance, NSC"
230,cat_tla,THR
230,cat_name,Thor
230,cat_uri,thor
230,cat_uri1,-thor-
230,bb_name,Thor
230,hb_id,2029
230,hb_name,Thor
231,cat_tla,TRP
231,cat_name,TrippNT
231,cat_uri,trippnt
231,bb_name,TrippNT
231,hb_id,1133
231,hb_name,TrippNT
232,cat_tla,ERG
232,cat_name,Ergodyne
232,cat_uri,ergodyne
232,bb_name,Ergodyne
232,hb_id,2021
232,hb_name,Ergodyne
233,cat_tla,TRC
233,cat_name,Tractel
233,cat_uri,tractel
233,bb_name,Tractel
233,hb_id,731
233,hb_name,Tractel
234,cat_tla,FEL
234,cat_name,Felco
234,cat_uri,felco
234,bb_name,Felco
234,hb_id,1538
234,hb_name,Felco
235,cat_tla,LOC
235,cat_name,Locoloc
235,cat_uri,locoloc
235,bb_name,Locoloc
235,hb_id,2529
235,hb_name,Locoloc
236,cat_tla,PRM
236,cat_name,Prime Scales
236,cat_uri,prime-scales
236,cat_uri1,-prime-scales-
236,bb_name,Prime Scales
236,hb_id,1761
236,hb_name,Prime Scales
237,cat_tla,ROC
237,cat_name,Rockwell
237,cat_uri,rockwell
237,bb_name,Rockwell
237,hb_id,2122
237,hb_name,Rockwell
238,cat_tla,CPC
238,cat_name,CPAC Equipment
238,cat_name1,CPAC
238,cat_uri,cpac
238,bb_name,CPAC Equipment
238,hb_id,1207
238,hb_name,CPAC
239,cat_tla,BLR
239,cat_name,Blueair
239,cat_uri,blueair
239,bb_name,Blueair
239,hb_id,1982
239,hb_name,Blueair
240,cat_tla,LAT
240,cat_name,LabTech
240,cat_uri,labtech
240,bb_name,LabTech
240,hb_id,1361
240,hb_name,LabTech
241,cat_tla,BRT
241,cat_name,BrandTech
241,cat_uri,brandtech
241,bb_name,BrandTech
241,hb_id,1052
241,hb_name,BrandTech Scientific
242,cat_tla,MEE
242,cat_name,Mettler Electronics
242,cat_uri,mettler-electronics
242,cat_uri1,-mettler-
242,bb_name,Mettler Electronics
242,hb_id,1210
242,hb_name,Mettler Electronics
243,cat_tla,BTL
243,cat_name,Beta Tools
243,cat_uri,beta-tools
243,cat_uri1,-beta-tools-
243,bb_name,Beta Tools
243,hb_id,3397
243,hb_name,Beta Tools
244,cat_tla,HTC
244,cat_name,High-Tech Conversions
244,cat_uri,high-tech-conversions
244,bb_name,High-Tech Conversions
244,hb_id,2509
244,hb_name,High-Tech Conversions
245,cat_tla,SNO
245,cat_name,Snap-on
245,cat_uri,snap-on
245,bb_name,Snap-on
245,hb_id,1764
245,hb_name,Snap-on
246,cat_tla,ACP
246,cat_name,Action Pump
246,cat_uri,action-pump
246,bb_name,Action Pump
246,hb_id,2108
246,hb_name,Action Pump
247,cat_tla,MCC
247,cat_name,MCC
247,cat_uri,mcc
247,cat_uri1,-mcc-
247,bb_name,MCC
247,hb_id,2526
247,hb_name,MCC
248,cat_tla,NOR
248,cat_name,North American Signal Company
248,cat_uri,north-american-signal-company
248,bb_name,North American Signal Company
248,hb_id,2993
248,hb_name,North American Signal Company
249,cat_tla,ARC
249,cat_name,Arconic
249,cat_uri,arconic
249,bb_name,Arconic
249,hb_id,1743
249,hb_name,Arconic
250,cat_tla,MAN
250,cat_name,Marson
250,cat_uri,marson
250,bb_name,Marson
250,hb_id,2769
250,hb_name,Marson
251,cat_tla,EKL
251,cat_name,Eklind
251,cat_uri,eklind
251,bb_name,Eklind
251,hb_id,1490
251,hb_name,Eklind
252,cat_tla,STA
252,cat_name,Stanbio Laboratory
252,cat_name1,Stanbio
252,cat_uri,stanbio-laboratory
252,bb_name,Stanbio Laboratory
252,hb_id,1198
252,hb_name,Stanbio Laboratory
253,cat_tla,KTO
253,cat_name,K Tool International
253,cat_uri,k-tool-international
253,bb_name,K Tool International
253,hb_id,1510
253,hb_name,K Tool International
254,cat_tla,3BS
254,cat_name,3B Scientific
254,cat_uri,3b-scientific
254,bb_name,3B Scientific
254,hb_id,1152
254,hb_name,3B Scientific
255,cat_tla,SUM
255,cat_name,AirMark
255,cat_name1,AirMark (formerly Summa)
255,cat_uri,summa
255,bb_name,AirMark
255,hb_id,1867
255,hb_name,AirMark (formerly Summa)
256,cat_tla,GLO
256,cat_name,GHS Safety
256,cat_uri,ghs-safety
256,bb_name,Globally Harmonized System
256,hb_id,942
256,hb_name,GHS Safety
257,cat_tla,3DS
257,cat_name,3D Stuffmaker
257,cat_uri,3d-stuffmaker
257,bb_name,3D Stuffmaker
257,hb_id,660
257,hb_name,3D Stuffmaker
258,cat_tla,STC
258,cat_name,STC
258,cat_name1,StcValve
258,cat_uri,stcvalve
258,bb_name,StcValve
258,hb_id,2938
258,hb_name,STC
259,cat_tla,HON
259,cat_name,Honeywell
259,cat_name1,Honeywell (Air Purifiers)
259,cat_uri,honeywell
259,bb_name,Honeywell
259,hb_id,1977
259,hb_name,Honeywell (Air Purifiers)
260,cat_tla,MIT
260,cat_name,Milton
260,cat_name1,Milton Industries
260,cat_uri,milton
260,bb_name,Milton
260,hb_id,309
260,hb_name,Milton
261,cat_tla,VAL
261,cat_name,Valterra
261,cat_uri,valterra
261,bb_name,Valterra
261,hb_id,2884
261,hb_name,Valterra
262,cat_tla,SIG
262,cat_name,SIGLENT
262,cat_name1,SIGLENT Technologies
262,cat_uri,siglent
262,cat_uri1,-siglent-
262,bb_name,SIGLENT
262,hb_id,2178
262,hb_name,SIGLENT Technologies
263,cat_tla,ANE
263,cat_name,Anest Iwata
263,cat_uri,anest-iwata
263,bb_name,Anest Iwata
263,hb_id,1421
263,hb_name,Anest Iwata
264,cat_tla,TAC
264,cat_name,Tach-It
264,cat_uri,tach-it
264,bb_name,Tach-It
264,hb_id,1270
264,hb_name,Tach-It
265,cat_tla,ESC
265,cat_name,Eschenbach
265,cat_name1,Eschenbach Optik
265,cat_uri,eschenbach
265,cat_uri1,-eschenbach-
265,bb_name,Eschenbach
265,hb_id,2254
265,hb_name,Eschenbach
266,cat_tla,ADC
266,cat_name,ADC
266,cat_name1,American Diagnostic Corporation
266,cat_uri,adc
266,bb_name,ADC
266,hb_id,3042
266,hb_name,ADC
267,cat_tla,KRA
267,cat_name,Kraft Tool Company
267,cat_name1,Kraft Tool Co.
267,cat_name2,Kraft Tool Co
267,cat_uri,kraft-tool-company
267,bb_name,Kraft Tool Company
267,hb_id,2816
267,hb_name,Kraft Tool Co
268,cat_tla,CDI
268,cat_name,CDI
268,cat_name1,CDI Torque Products
268,cat_name2,Snap-on
268,cat_uri,cdi
268,bb_name,CDI
268,hb_id,2786
268,hb_name,CDI Torque Products
269,cat_tla,BAH
269,cat_name,Bahco
269,cat_uri,bahco
269,bb_name,Bahco
269,hb_id,820
269,hb_name,Bahco
270,cat_tla,WIL
270,cat_name,Williams
270,cat_uri,williams
270,bb_name,Williams
270,hb_id,316
270,hb_name,Williams
271,cat_tla,ACC
271,cat_name,Accuform
271,cat_uri,accuform
271,bb_name,Accuform
271,hb_id,1435
271,hb_name,Accuform
272,cat_tla,ABE
272,cat_name,Abatement Technologies
272,cat_uri,abatement-technologies
272,bb_name,Abatement Technologies
272,hb_id,3392
272,hb_name,Abatement Technologies
273,cat_tla,WNL
273,cat_name,WNL Products
273,cat_name1,WNL
273,cat_uri,wnl-products
273,bb_name,WNL Products
273,hb_id,3688
273,hb_name,WNL
274,cat_tla,HOW
274,cat_name,Howard
274,cat_name1,Howard Lighting
274,cat_uri,howard-lighting
274,bb_name,Howard Lighting
274,hb_id,713
274,hb_name,Howard Lighting
275,cat_tla,WEB
275,cat_name,Webstone
275,cat_name1,Webstone Company
275,cat_uri,webstone-company
275,bb_name,Webstone
275,hb_id,2281
275,hb_name,Webstone
276,cat_tla,ROB
276,cat_name,Robo 3D
276,cat_uri,robo-3d
276,bb_name,Robo 3D
276,hb_id,2567
276,hb_name,Robo 3D
277,cat_tla,ARR
277,cat_name,Arrow
277,cat_name1,Arrow Fastener Company
277,cat_name2,Arrow Fastener
277,cat_uri,arrow-fastener-company
277,bb_name,Arrow
277,hb_id,2018
277,hb_name,Arrow Fastener
278,cat_tla,AEP
278,cat_name,AMEP
278,cat_name1,American Educational Products
278,cat_name2,American Educational Products (AMEP)
278,cat_uri,amep
278,bb_name,American Educational Products
278,hb_id,1086
278,hb_name,American Educational Products (AMEP)
279,cat_tla,VEL
279,cat_name,Velleman
279,cat_uri,velleman
279,bb_name,Velleman
279,hb_id,962
279,hb_name,Velleman
280,cat_tla,LEV
280,cat_name,Levenhuk
280,cat_uri,levenhuk
280,bb_name,Levenhuk
280,hb_id,2387
280,hb_name,Levenhuk
281,cat_tla,FIS
281,cat_name,Fisher
281,cat_name1,Fisher Labs
281,cat_uri,fisher-labs
281,bb_name,Fisher
281,hb_id,1303
281,hb_name,Fisher Labs
282,cat_tla,FIR
282,cat_name,Firefly
282,cat_name1,Firefly Global
282,cat_uri,firefly-global
282,cat_uri1,-firefly-
282,bb_name,Firefly
282,hb_id,3738
282,hb_name,Firefly
283,cat_tla,CCL
283,cat_name,CCL
283,cat_name1,CCL Security Products
283,cat_name2,CCL Security Products (Sesamee)
283,cat_uri,ccl-security-products
283,bb_name,CCL
283,hb_id,1791
283,hb_name,CCL Security Products (Sesamee)
284,cat_tla,KON
284,cat_name,Konus
284,cat_uri,konus
284,cat_uri1,-konus-
284,bb_name,Konus
284,hb_id,165
284,hb_name,Konus
285,cat_tla,STO
285,cat_name,Stromberg Carlson
285,cat_name1,Stromberg Carlson Products
285,cat_uri,stromberg-carlson-products
285,bb_name,Stromberg Carlson
285,hb_id,1663
285,hb_name,Stromberg Carlson Products
286,cat_tla,LOT
286,cat_name,Lotos
286,cat_name1,Lotos Technology
286,cat_uri,lotos-technology
286,cat_uri1,-lotos-
286,bb_name,Lotos
286,hb_id,1928
286,hb_name,Lotos Technology
287,cat_tla,FEI
287,cat_name,Fein
287,cat_name1,Fein Power Tools
287,cat_uri,fein-power-tools
287,bb_name,Fein
287,hb_id,178
287,hb_name,Fein
288,cat_tla,ZIP
288,cat_name,ZipWall
288,cat_uri,zipwall
288,bb_name,ZipWall
288,hb_id,1783
288,hb_name,ZipWall
289,cat_tla,DUO
289,cat_name,Duro United
289,cat_uri,duro-united
289,bb_name,Duro United
289,hb_id,2226
289,hb_name,Duro United
290,cat_tla,SPA
290,cat_name,Span
290,cat_uri,span
290,bb_name,Span
290,hb_id,2128
290,hb_name,SPAN
291,cat_tla,PUL
291,cat_name,Pulsafeeder
291,cat_uri,pulsafeeder
291,bb_name,Pulsafeeder
291,hb_id,2249
291,hb_name,Pulsafeeder
292,cat_tla,ZIT
292,cat_name,ZipTape
292,cat_name1,ZipTape Label ID Systems
292,cat_uri,ziptape-label-id-systems
292,bb_name,ZipTape
292,hb_id,61
292,hb_name,ZipTape Label ID Systems
293,cat_tla,WIN
293,cat_name,Winters
293,cat_name1,Winters Instruments
293,cat_uri,winters-instruments
293,bb_name,Winters
293,hb_id,2227
293,hb_name,Winters
294,cat_tla,TIE
294,cat_name,Tiertime
294,cat_name1,UP!
294,cat_uri,tiertime
294,bb_name,Tiertime
294,hb_id,963
294,hb_name,UP!
295,cat_tla,GAR
295,cat_name,Garvey
295,cat_name1,Garvey Products
295,cat_uri,garvey-products
295,bb_name,Garvey
295,hb_id,2217
295,hb_name,Garvey
296,cat_tla,KIN
296,cat_name,Kinesio
296,cat_name1,Kinesio Taping
296,cat_uri,kinesio-taping
296,bb_name,Kinesio Taping
296,hb_id,3611
296,hb_name,Kinesio Taping
297,cat_tla,SAM
297,cat_name,SAM Medical Products
297,cat_name1,SAM
297,cat_uri,sam
297,bb_name,SAM Medical Products
297,hb_id,3662
297,hb_name,SAM Medical Products
297,cat_tla,SAM
297,cat_name,SAM Medical Products
297,cat_name1,SAM
297,cat_uri,sam
297,bb_name,SAM Medical Products
297,hb_id,3662
297,hb_name,SAM Medical Products
298,cat_tla,DYA
298,cat_name,Dynarex
298,cat_name1,Dynarex Corporation
298,cat_uri,dynarex-corporation
298,bb_name,Dynarex
298,hb_id,3094
298,hb_name,Dynarex
299,cat_tla,MKD
299,cat_name,MK Diamond
299,cat_name1,MK Diamond Products
299,cat_uri,mkdiamond-products
299,bb_name,MK Diamond
299,hb_id,266
299,hb_name,MK Diamond
300,cat_tla,EDS
300,cat_name,Edsal
300,cat_name1,Edsal Manufacturing
300,cat_uri,edsal-manufacturing
300,bb_name,Edsal
300,hb_id,1140
300,hb_name,Edsal Manufacturing
301,cat_tla,TEK
301,cat_name,Teknetics
301,cat_uri,teknetics
301,bb_name,Teknetics
301,hb_id,2085
301,hb_name,Teknetics
302,cat_tla,CAH
302,cat_name,Cash Acme
302,cat_name1,Sharkbite / Cash Acme
302,cat_uri,cash-acme
302,bb_name,Cash Acme
302,hb_id,4637
302,hb_name,Cash Acme
303,cat_tla,SHA
303,cat_name,Sharkbite
303,cat_name1,Sharkbite / Cash Acme
303,cat_uri,sharkbite
303,bb_name,SharkBite
303,hb_id,2202
303,hb_name,Sharkbite
304,cat_tla,STL
304,cat_name,Steinel
304,cat_uri,steinel-products
304,cat_uri1,-steinel-products-
304,bb_name,Steinel
304,hb_id,2293
304,hb_name,Steinel
305,cat_tla,LWM
305,cat_name,LW Measurements
305,cat_uri,lw-measurements
305,bb_name,LW Measurements
305,hb_id,1763
305,hb_name,LW Measurements
306,cat_tla,VIT
306,cat_name,Vitl
306,cat_name1,Vitl Life Science Solutions
306,cat_uri,vitl-life-science-solutions
306,bb_name,Vitl
306,hb_id,2397
306,hb_name,Vitl
307,cat_tla,LOG
307,cat_name,LogRite
307,cat_name1,LogRite Tools
307,cat_uri,logrite-tools
307,bb_name,LogRite
307,hb_id,4565
307,hb_name,LogRite
308,cat_tla,IDP
308,cat_name,IDP
308,cat_uri,idp
308,bb_name,IDP
308,hb_id,2647
308,hb_name,IDP
309,cat_tla,DIA
309,cat_name,Diamond Products
309,cat_name1,Diamond Products Limited
309,cat_uri,dia-mond-products-limited
309,bb_name,Diamond Products
309,hb_id,204
309,hb_name,Diamond Products
310,cat_tla,ZUR
310,cat_name,Zurn
310,cat_name1,Zurn Industries
310,cat_uri,zurn-industries
310,bb_name,Zurn
310,hb_id,2206
310,hb_name,Zurn
311,cat_tla,PUR
311,cat_name,PureAire
311,cat_name1,PureAire Monitoring Systems
311,cat_uri,pureaire-monitoring-systems
311,bb_name,PureAire
311,hb_id,4556
311,hb_name,PureAire
312,cat_tla,MED
312,cat_name,Medicool
312,cat_uri,medicool
312,bb_name,Medicool
312,hb_id,3826
312,hb_name,Medicool
313,cat_tla,COP
313,cat_name,Core Products
313,cat_name1,Jeanie Rub
313,cat_uri,core-products
313,cat_uri1,-core-products-
313,bb_name,Core Products
313,hb_id,3744
313,hb_name,Core Products
314,cat_tla,FLE
314,cat_name,Flexovit
314,cat_uri,flexovit
314,bb_name,Flexovit
314,hb_id,1493
314,hb_name,Flexovit
315,cat_tla,ADV
315,cat_name,Advanced Orthopaedics
315,cat_uri,advanced-orthopaedics
315,bb_name,Advanced Orthopaedics
315,hb_id,3752
315,hb_name,Advanced Orthopaedics
316,cat_tla,USJ
316,cat_name,U.S. Jack
316,cat_name1,US Jack
316,cat_name2,U.S. Jack (US Jack)
316,cat_uri,us-jack
316,bb_name,U.S. Jack
316,hb_id,4575
316,hb_name,U.S. Jack (US Jack)
317,cat_tla,WOO
317,cat_name,Woodward Fab
317,cat_uri,woodward-fab
317,bb_name,Woodward Fab
317,hb_id,4249
317,hb_name,Woodward Fab
318,cat_tla,ACO
318,cat_name,Across
318,cat_name1,Across International
318,cat_uri,across-international
318,cat_uri1,-across-
318,bb_name,Across
318,hb_id,1214
318,hb_name,Across International
319,cat_tla,STU
319,cat_name,Steren
319,cat_name1,Steren USA
319,cat_uri,steren-usa
319,bb_name,Steren
319,hb_id,1167
319,hb_name,Steren USA
320,cat_tla,PIL
320,cat_name,Pilot Rock
320,cat_uri,pilot-rock
320,bb_name,Pilot Rock
320,hb_id,4456
320,hb_name,Pilot Rock
321,cat_tla,EVO
321,cat_name,Evolis
321,cat_uri,evolis
321,bb_name,Evolis
321,hb_id,1264
321,hb_name,Evolis
322,cat_tla,CAT
322,cat_name,Cat Pumps
322,cat_name1,Cat Pumps
322,cat_uri,cat-pumps
322,bb_name,Cat Pumps
322,hb_id,1996
322,hb_name,Cat Pumps
323,cat_tla,SHI
323,cat_name,Shimpo
323,cat_name1,Shimpo Instruments
323,cat_uri,shimpo-instruments
323,bb_name,Shimpo
323,hb_id,407
323,hb_name,Shimpo Instruments
324,cat_tla,AMI
324,cat_name,AMICO
324,cat_name1,AMICO Power
324,cat_name2,Amico Power Corp.
324,cat_uri,amico-power
324,bb_name,AMICO Power
324,hb_id,1929
324,hb_name,Amico Power Corp.
325,cat_tla,ANN
325,cat_name,AR North America
325,cat_name1,Annovi Reverberi
325,cat_uri,ar-north-america
325,bb_name,AR North America
325,hb_id,2252
325,hb_name,AR North America
326,cat_tla,ALE
326,cat_name,Alemite
326,cat_uri,alemite
326,bb_name,Alemite
326,hb_id,4676
326,hb_name,Alemite
327,cat_tla,WIK
327,cat_name,WIKA
327,cat_name1,WIKA Instrument
327,cat_uri,wika-instrument
327,cat_uri1,-wika-
327,bb_name,WIKA
327,hb_id,1939
327,hb_name,WIKA
328,cat_tla,HAW
328,cat_name,HawkEye
328,cat_name1,HawkEye Electronics
328,cat_uri,hawkeye-electronics
328,bb_name,HawkEye
328,hb_id,4742
328,hb_name,HawkEye
329,cat_tla,ALA
329,cat_name,All American
329,cat_uri,all-american
329,bb_name,All American
329,hb_id,2410
329,hb_name,All American
330,cat_tla,AMM
330,cat_name,AMMEX
330,cat_name1,AMMEX Corporation
330,cat_uri,ammex-corporation
330,cat_uri1,-ammex-corporation-
330,bb_name,AMMEX
330,hb_id,3694
330,hb_name,AMMEX
331,cat_tla,SEE
331,cat_name,Seek
331,cat_name1,Seek Thermal
331,cat_uri,seek-thermal
331,bb_name,Seek
331,hb_id,4650
331,hb_name,Seek
332,cat_tla,MOR
332,cat_name,Morris
332,cat_name1,Morris Products
332,cat_name2,Morris / Morris Products
332,cat_uri,morris-products
332,bb_name,Morris
332,hb_id,4567
332,hb_name,Morris / Morris Products
333,cat_tla,3DS
333,cat_name,3D Stuffmaker
333,cat_uri,3d-stuffmaker
333,bb_name,3D Stuffmaker
333,hb_id,660
333,hb_name,3D Stuffmaker
334,cat_tla,THE
334,cat_name,Therabath
334,cat_uri,therabath
334,bb_name,Therabath
334,hb_id,3675
334,hb_name,Therabath
335,cat_tla,ROS
335,cat_name,Roscoe Medical
335,cat_uri,roscoe-medical
335,bb_name,Roscoe Medical
335,hb_id,3068
335,hb_name,Roscoe Medical
336,cat_tla,INU
336,cat_name,Intuit
336,cat_uri,intuit
336,bb_name,Intuit
336,hb_id,1587
336,hb_name,Intuit
337,cat_tla,RUT
337,cat_name,Rutherford Controls
337,cat_name1,RCI
337,cat_uri,rutherford-controls
337,bb_name,Rutherford Controls
337,hb_id,2179
337,hb_name,RCI
338,cat_tla,1DqqLtest
338,cat_name,DqqLABtest
338,cat_name1,DqqLAB (DLAB Scientific)test
338,cat_uri,-dqqlabqq-test
338,bb_name,DqqLABtest
338,hb_id,4qq814test
338,hb_name,DqqLAB (DqqLAB Scientific)test
339,cat_tla,PED
339,cat_name,Pedrollo
339,cat_uri,pedrollo
339,bb_name,Pedrollo
339,hb_id,4797
339,hb_name,Pedrollo
340,cat_tla,CUR
340,cat_name,Current Tools
340,cat_uri,current-tools
340,bb_name,Current Tools
340,hb_id,707
340,hb_name,Current Tools
341,cat_tla,VIB
341,cat_name,VIBCO
341,cat_name1,VIBCO Vibrators
341,cat_uri,vibco
341,bb_name,VIBCO
341,hb_id,2087
341,hb_name,VIBCO Vibrators
342,cat_tla,AMS
342,cat_name,AMS
342,cat_uri,ams
342,bb_name,AMS
342,hb_id,136
342,hb_name,AMS
343,cat_tla,ALU
343,cat_name,Alumi-Pro
343,cat_uri,alumi-pro
343,bb_name,Alumi-Pro
343,hb_id,669
343,hb_name,Alumi-Pro
344,cat_tla,EXC
344,cat_name,Excalibur
344,cat_name1,Excalibur (Excalibur Dehydrators)
344,cat_uri,excalibur-dehydrators
344,cat_uri1,-excalibur-dehydrators-
344,bb_name,Excalibur
344,hb_id,4809
344,hb_name,Excalibur (Excalibur Dehydrators)
345,cat_tla,TIT
345,cat_name,Titan
345,cat_name1,Titan FCI
345,cat_name1,Titan Flow Control
345,cat_uri,titan-fci
345,bb_name,Titan
345,hb_id,364
345,hb_name,Titan Flow Control
346,cat_tla,TON
346,cat_name,Tornado
346,cat_name1,Tornado Industries
346,cat_uri,tornado-industries
346,cat_uri1,-tornado-
346,bb_name,Tornado
346,hb_id,735
346,hb_name,Tornado Industries
347,cat_tla,LON
347,cat_name,Longevity
347,cat_uri,longevity
347,cat_uri1,-longevity-
347,bb_name,Longevity
347,hb_id,1945
347,hb_name,Longevity
348,cat_tla,LAE
348,cat_name,LabExact
348,cat_uri,labexact
348,cat_uri1,-labexact-
348,bb_name,LabExact
348,hb_id,2401
348,hb_name,LabExact
349,cat_tla,DER
349,cat_name,Delco Remy
349,cat_uri,delco-remy
349,bb_name,Delco Remy
349,hb_id,3712
349,hb_name,Delco Remy
350,cat_tla,PAC
350,cat_name,Pacific Handy Cutter
350,cat_name1,PHC
350,cat_uri,pacific-handy-cutter
350,bb_name,Pacific Handy Cutter
350,hb_id,4831
350,hb_name,Pacific Handy Cutter (PHC)
351,cat_tla,LOW
351,cat_name,Lowrance
351,cat_uri,lowrance
351,bb_name,Lowrance
351,hb_id,4740
351,hb_name,Lowrance
352,cat_tla,SIM
352,cat_name,Simrad
352,cat_name1,Simrad Yachting
352,cat_name2,Simrad (Simrad Yachting)
352,cat_uri,simrad
352,bb_name,Simrad
352,hb_id,4746
352,hb_name,Simrad (Simrad Yachting)
353,cat_tla,MAG
353,cat_name,MakerGear
353,cat_uri,makergear
353,bb_name,MakerGear
353,hb_id,965
353,hb_name,MakerGear
354,cat_tla,SEA
354,cat_name,Seal-Tight
354,cat_uri,seal-tight
354,bb_name,Seal-Tight
354,hb_id,3448
354,hb_name,Seal-Tight
355,cat_tla,SOT
355,cat_name,Soft Stride
355,cat_uri,soft-stride
355,bb_name,Soft Stride
355,hb_id,4868
355,hb_name,Soft Stride
356,cat_tla,STS
356,cat_name,Steady Step
356,cat_uri,steady-step
356,bb_name,Steady Step
356,hb_id,4882
356,hb_name,Steady Step
357,cat_tla,POA
357,cat_name,Polar Ice
357,cat_uri,polar-ice
357,bb_name,Polar Ice
357,hb_id,3454
357,hb_name,Polar Ice
358,cat_tla,NIC
358,cat_name,Nice Stretch
358,cat_uri,nice-stretch
358,bb_name,Nice Stretch
358,hb_id,3451
358,hb_name,Nice Stretch
359,cat_tla,INE
359,cat_name,Intellinetix
359,cat_uri,intellinetix
359,bb_name,Intellinetix
359,hb_id,3455
359,hb_name,Intellinetix
360,cat_tla,IMS
360,cat_name,IMAK RSI
360,cat_uri,imak-rsi
360,bb_name,IMAK RSI
360,hb_id,3449
360,hb_name,IMAK RSI
361,cat_tla,IME
361,cat_name,IMAK Ergo
361,cat_uri,imak-ergo
361,bb_name,IMAK Ergo
361,hb_id,4885
361,hb_name,IMAK Ergo
362,cat_tla,IMC
362,cat_name,IMAK Compression
362,cat_uri,imak-compression
362,bb_name,IMAK Compression
362,hb_id,4884
362,hb_name,IMAK Compression
363,cat_tla,BAT
363,cat_name,BarTender
363,cat_name1,BarTender (Seagull Scientific)
363,cat_uri,bartender
363,bb_name,BarTender
363,hb_id,1630
363,hb_name,BarTender (Seagull Scientific)
364,cat_tla,GOA
364,cat_name,Goal Zero
364,cat_uri,goal-zero
364,bb_name,Goal Zero
364,hb_id,4766
364,hb_name,Goal Zero
365,cat_tla,AMC
365,cat_name,AMC
365,cat_name1,Anderson Metals
365,cat_name2,Anderson Metals Corp.
365,cat_name3,"Anderson Metals Corp, AMC"
365,cat_uri,anderson-metals
365,bb_name,Anderson Metals
365,hb_id,2118
365,hb_name,"Anderson Metals Corp, AMC"
366,cat_tla,ADE
366,cat_name,A&D Medical
366,cat_uri,a-d-medical
366,bb_name,A-D Medical
366,hb_id,3121
366,hb_name,A&D Medical
367,cat_tla,REI
367,cat_name,Reichert
367,cat_name1,Reichert Technologies
367,cat_uri,reichert-technologies
367,bb_name,Reichert
367,hb_id,1157
367,hb_name,Reichert
368,cat_tla,NEL
368,cat_name,Nellcor
368,cat_uri,nellcor
368,bb_name,Nellcor
368,hb_id,1673
368,hb_name,Nellcor
369,cat_tla,XYZ
369,cat_name,XYZprinting
369,cat_uri,xyzprinting
369,bb_name,XYZprinting
369,hb_id,2585
369,hb_name,XYZprinting
370,cat_tla,INS
370,cat_name,Insize
370,cat_name1,InSize
370,cat_uri,insize
370,bb_name,Insize
370,hb_id,2483
370,hb_name,InSize
371,cat_tla,PHA
371,cat_name,Phase II
371,cat_name1,Phase II Plus
371,cat_name2,Phase II Machine & Tool
371,cat_uri,phase-ii-plus
371,bb_name,Phase II
371,hb_id,2180
371,hb_name,Phase II
372,cat_tla,PRN
372,cat_name,Printek
372,cat_uri,printek
372,bb_name,Printek
372,hb_id,385
372,hb_name,Printek
373,cat_tla,LEE
373,cat_name,Leeson
373,cat_name1,Leeson Electric
373,cat_uri,leeson
373,bb_name,Leeson
373,hb_id,2238
373,hb_name,Leeson
374,cat_tla,LOR
374,cat_name,Lorex
374,cat_uri,lorex
374,bb_name,Lorex
374,hb_id,4775
374,hb_name,Lorex
375,cat_tla,CMT
375,cat_name,CMT
375,cat_name1,CMT Orange Tools
375,cat_uri,cmt
375,bb_name,CMT
375,hb_id,2054
375,hb_name,CMT Orange Tools
376,cat_tla,NOT
376,cat_name,Norton
376,cat_name1,Norton Industrial
376,cat_uri,norton
376,bb_name,Norton
376,hb_id,2043
376,hb_name,Norton Industrial
377,cat_tla,SNA
377,cat_name,Snap-Loc
377,cat_uri,snap-loc
377,bb_name,Snap-Loc
377,hb_id,4978
377,hb_name,Snap-Loc
378,cat_tla,THI
378,cat_name,Thinklogical
378,cat_uri,thinklogical
378,bb_name,Thinklogical
378,hb_id,3603
378,hb_name,Thinklogical
379,cat_tla,OET
379,cat_name,Oetiker
379,cat_uri,oetiker
379,bb_name,Oetiker
379,hb_id,2752
379,hb_name,Oetiker
380,cat_tla,KUS
380,cat_name,Kushlan
380,cat_name1,Kushlan Products
380,cat_uri,kushlan-products
380,bb_name,Kushlan
380,hb_id,4841
380,hb_name,Kushlan
381,cat_tla,REA
381,cat_name,Reliamed
381,cat_uri,reliamed
381,bb_name,ReliaMed
381,hb_id,3072
381,hb_name,ReliaMed
382,cat_tla,QSC
382,cat_name,Q-Scope
382,cat_uri,q-scope
382,bb_name,Q-Scope
382,hb_id,4961
382,hb_name,Q-Scope
383,cat_tla,ARI
383,cat_name,Aries FilterWorks
383,cat_uri,aries-filterworks
383,bb_name,Aries FilterWorks
383,hb_id,1426
383,hb_name,Aries FilterWorks
384,cat_tla,KWI
384,cat_name,Kwikset
384,cat_uri,kwikset
384,bb_name,Kwikset
384,hb_id,1776
384,hb_name,Kwikset
385,cat_tla,EAG
385,cat_name,Eagle Tool US
385,cat_name1,Eagle Tool Us
385,cat_uri,eagle-tool-us
385,bb_name,Eagle Tool Us
385,hb_id,2811
385,hb_name,Eagle Tool Us
386,cat_tla,HEC
386,cat_name,Heck
386,cat_name1,Heck Industries
386,cat_uri,heck-industries
386,bb_name,Heck Industries
386,hb_id,2778
386,hb_name,Heck Industries
387,cat_tla,HEU
387,cat_name,Heuer
387,cat_name1,HEUER
387,cat_uri,heuer
387,bb_name,Heuer
387,hb_id,4985
387,hb_name,HEUER
388,cat_tla,TAJ
388,cat_name,Tajima
388,cat_name1,Tajima Tool
388,cat_uri,tajima-tool
388,bb_name,Tajima
388,hb_id,1523
388,hb_name,Tajima
389,cat_tla,YAH
389,cat_name,Yamaha Generator
389,cat_uri,yamaha-generator
389,bb_name,Yamaha Generator
389,hb_id,2034
389,hb_name,Yamaha Generator
390,cat_tla,AUS
390,cat_name,Austin
390,cat_name1,Austin Air
390,cat_name2,Austin / Austin Air
390,cat_uri,austin-air
390,bb_name,Austin Air
390,hb_id,1987
390,hb_name,Austin / Austin Air
391,cat_tla,MSS
391,cat_name,MSSC
391,cat_name1,Marsh
391,cat_name2,Marsh (MSSC)
391,cat_uri,mssc
391,bb_name,MSSC
391,hb_id,2104
391,hb_name,Marsh (MSSC)
392,cat_tla,OPS
392,cat_name,Optimum Safety
392,cat_name1,Dynamic Safety USA
392,cat_uri,optimum-safety
392,bb_name,Optimum Safety
392,hb_id,2417
392,hb_name,Dynamic Safety USA
393,cat_tla,SEC
393,cat_name,Seca
393,cat_uri,seca
393,bb_name,Seca
393,hb_id,118
393,hb_name,Seca
394,cat_tla,GAM
394,cat_name,Garmin
394,cat_uri,garmin
394,bb_name,Garmin
394,hb_id,609
394,hb_name,Garmin
395,cat_tla,MTC
395,cat_name,MTC Moisture Analyzers
395,cat_uri,mtc-moisture-analyzers
395,bb_name,MTC Moisture Analyzers
395,hb_id,5024
395,hb_name,MTC Moisture Analyzers
396,cat_tla,GLB
396,cat_name,Globe Scientific
396,cat_uri,globe-scientific
396,bb_name,Globe Scientific
396,hb_id,96
396,hb_name,Globe Scientific
397,cat_tla,AIS
397,cat_name,Air Science
397,cat_uri,air-science
397,bb_name,Air Science
397,hb_id,1217
397,hb_name,Air Science
398,cat_tla,RAY
398,cat_name,Raymarine
398,cat_uri,raymarine
398,bb_name,Raymarine
398,hb_id,1004
398,hb_name,Raymarine
399,cat_tla,JOM
399,cat_name,Jomar
399,cat_uri,jomar
399,bb_name,Jomar
399,hb_id,2975
399,hb_name,Jomar
400,cat_tla,MES
400,cat_name,MedSource
400,cat_uri,medsource
400,bb_name,MedSource
400,hb_id,3628
400,hb_name,MedSource
401,cat_tla,MRT
401,cat_name,Martindale
401,cat_uri,martindale
401,bb_name,Martindale
401,hb_id,5054
401,hb_name,Martindale
402,cat_tla,BIM
402,cat_name,Biomiga
402,cat_uri,biomiga
402,bb_name,Biomiga
402,hb_id,5068
402,hb_name,Biomiga
403,cat_tla,BUD
403,cat_name,Bud
403,cat_name1,Bud Industries
403,cat_uri,bud
403,bb_name,Bud
403,hb_id,2694
403,hb_name,Bud
404,cat_tla,LUX
404,cat_name,LuxteL
404,cat_uri,luxtel
404,bb_name,LuxteL
404,hb_id,1193
404,hb_name,LuxteL LLC
405,cat_tla,DOR
405,cat_name,Doran
405,cat_name1,Doran Scales
405,cat_uri,doran
405,bb_name,Doran
405,hb_id,1251
405,hb_name,Doran
406,cat_tla,MEG
406,cat_name,Megapro
406,cat_name1,Megapro Tools
406,cat_uri,megapro-tools
406,bb_name,Megapro
406,hb_id,2779
406,hb_name,Megapro
407,cat_tla,FEC
407,cat_name,Fechometal USA
407,cat_uri,fechometal-usa
407,bb_name,Fechometal USA
407,hb_id,5122
407,hb_name,Fechometal USA
408,cat_tla,TEM
408,cat_name,Tempil
408,cat_uri,tempil
408,bb_name,Tempil
408,hb_id,809
408,hb_name,Tempil
409,cat_tla,ANC
409,cat_name,Ancor
409,cat_uri,ancor
409,bb_name,Ancor
409,hb_id,5117
409,hb_name,Ancor
410,cat_tla,BEP
410,cat_name,BEP
410,cat_uri,bep
410,bb_name,BEP
410,hb_id,5118
410,hb_name,BEP
411,cat_tla,MAV
411,cat_name,Mastervolt
411,cat_uri,mastervolt
411,bb_name,Mastervolt
411,hb_id,5121
411,hb_name,Mastervolt
412,cat_tla,MRC
412,cat_name,Marinco
412,cat_uri,marinco
412,bb_name,Marinco
412,hb_id,5119
412,hb_name,Marinco
413,cat_tla,BIR
413,cat_name,Bird-X
413,cat_uri,bird-x
413,bb_name,Bird-X
413,hb_id,4866
413,hb_name,Bird-X
414,cat_tla,PAR
414,cat_name,PARI
414,cat_name1,Pari
414,cat_uri,pari
414,bb_name,Pari
414,hb_id,3297
414,hb_name,Pari
415,cat_tla,PMA
415,cat_name,ProMariner
415,cat_uri,promariner
415,bb_name,ProMariner
415,hb_id,5120
415,hb_name,ProMariner
416,cat_tla,DEA
416,cat_name,Dearborn
416,cat_uri,dearborn
416,bb_name,Dearborn
416,hb_id,5186
416,hb_name,Dearborn
417,cat_tla,OAT
417,cat_name,Oatey
417,cat_name1,Oatey SCS (Supply Chain Services)
417,cat_uri,oatey
417,bb_name,Oatey
417,hb_id,1141
417,hb_name,Oatey SCS (Supply Chain Services)
418,cat_tla,HER
418,cat_name,Hercules
418,cat_name1,Hercules (Oatey)
418,cat_uri,hercules
418,bb_name,Hercules
418,hb_id,5187
418,hb_name,Hercules (Oatey)
419,cat_tla,DPT
419,cat_name,DuPont
419,cat_name1,Tyvek
419,cat_uri,dupont
419,bb_name,DuPont
419,hb_id,3952
419,hb_name,DuPont
420,cat_tla,HRV
420,cat_name,Harvey
420,cat_uri,harvey
420,bb_name,Harvey
420,hb_id,5185
420,hb_name,Harvey
421,cat_tla,PYR
421,cat_name,PYREX
421,cat_uri,pyrex
421,bb_name,PYREX
421,hb_id,5194
421,hb_name,PYREX
422,cat_tla,COI
422,cat_name,Corning
422,cat_uri,corning
422,bb_name,Corning
422,hb_id,92
422,hb_name,Corning
423,cat_tla,WHA
423,cat_name,Wheaton
423,cat_uri,wheaton
423,bb_name,Wheaton
423,hb_id,1085
423,hb_name,Wheaton
424,cat_tla,DUN
424,cat_name,Duran
424,cat_uri,duran
424,bb_name,Duran
424,hb_id,3008
424,hb_name,Duran
425,cat_tla,3PS
425,cat_name,3M
425,cat_name1,3M Personal Safety
425,cat_uri,3m-personal-safety
425,bb_name,3M Personal Safety
425,hb_id,2244
425,hb_name,3M Personal Safety
426,cat_tla,TIN
426,cat_name,Titan Tool
426,cat_uri,titan-tool
426,bb_name,Titan Tool
426,hb_id,2829
426,hb_name,Titan (Sprayers)
427,cat_tla,AGI
427,cat_name,Allegro Industries
427,cat_uri,allegro-industries
427,bb_name,Allegro Industries
427,hb_id,288
427,hb_name,Allegro Industries
428,cat_tla,CLI
428,cat_name,Climax Metal
428,cat_uri,climax-metal
428,bb_name,Climax Metal
428,hb_id,2929
428,hb_name,Climax Metal
429,cat_tla,MTB
429,cat_name,MTC Bio
429,cat_uri,mtc-bio
429,bb_name,MTC Bio
429,hb_id,2406
429,hb_name,MTC Bio
430,cat_tla,ECS
430,cat_name,Eco Sensors
430,cat_uri,eco-sensors
430,bb_name,Eco Sensors
430,hb_id,5299
430,hb_name,Eco Sensors
431,cat_tla,SCT
431,cat_name,S-Curve Technologies
431,cat_uri,s-curve-technologies
431,bb_name,S-Curve Technologies
431,hb_id,2360
431,hb_name,S-Curve Technologies
432,cat_tla,ELM
432,cat_name,ELMI
432,cat_uri,elmi
432,bb_name,ELMI
432,hb_id,1081
432,hb_name,ELMI
433,cat_tla,ATB
433,cat_name,Atlantic Blowers
433,cat_uri,atlantic-blowers
433,bb_name,Atlantic Blowers
433,hb_id,2066
433,hb_name,Atlantic Blowers
434,cat_tla,FTC
434,cat_name,Fischer Technical Company
434,cat_uri,fischer-technical-company
434,bb_name,Fischer Technical Company
434,hb_id,2400
434,hb_name,Fischer Technical Company
435,cat_tla,JAC
435,cat_name,Jaece
435,cat_uri,jaece
435,bb_name,Jaece
435,hb_id,5228
435,hb_name,Jaece
436,cat_tla,KIM
436,cat_name,Kimble
436,cat_uri,kimble
436,bb_name,Kimble
436,hb_id,1047
436,hb_name,Kimble
437,cat_tla,LAX
437,cat_name,Laxco
437,cat_uri,laxco
437,bb_name,Laxco
437,hb_id,1830
437,hb_name,Laxco
438,cat_tla,API
438,cat_name,Apera Instruments
438,cat_uri,apera-instruments
438,bb_name,Apera Instruments
438,hb_id,5172
438,hb_name,Apera Instruments
439,cat_tla,BRK
439,cat_name,Berkshire
439,cat_uri,berkshire
439,bb_name,Berkshire
439,hb_id,5219
439,hb_name,Berkshire
440,cat_tla,DML
440,cat_name,Dermlite
440,cat_uri,dermlite
440,bb_name,Dermlite
440,hb_id,5250
440,hb_name,Dermlite
441,cat_tla,DLB
441,cat_tla1,1DL
441,cat_name,Dlab
441,cat_name1,DLAB
441,cat_uri,dlab
441,cat_uri1,-dlab-
441,bb_name,DLAB
441,hb_id,4814
441,hb_name,DLAB (DLAB Scientific)
442,cat_tla,BWM
442,cat_name,Bowman Dispensers
442,cat_uri,bowman-dispensers
442,bb_name,Bowman Dispensers
442,hb_id,3520
442,hb_name,Bowman
443,cat_tla,LBT
443,cat_name,LabTAG
443,cat_uri,labtag
443,bb_name,LabTAG
443,hb_id,5912
443,hb_name,LabTAG
444,cat_tla,BCS
444,cat_name,Biocision
444,cat_uri,biocision
444,bb_name,Biocision
444,hb_id,2423
444,hb_name,Biocision
445,cat_tla,CSP
445,cat_name,Celltreat Scientific Products
445,cat_name1,Celltreat
445,cat_uri,celltreat-scientific-products
445,bb_name,Celltreat Scientific Products
445,hb_id,1827
445,hb_name,Celltreat Scientific Products
446,cat_tla,MJT
446,cat_name,Meiji Techno
446,cat_uri,meiji-techno
446,bb_name,Meiji Techno
446,hb_id,2435
446,hb_name,Meiji
447,cat_tla,SNX
447,cat_name,Sonix 4
447,cat_uri,sonix-4
447,bb_name,Sonix 4
447,hb_id,4054
447,hb_name,Sonix IV / Sonix 4
448,cat_tla,FLS
448,cat_name,Foxx Life Sciences
448,cat_uri,foxx-life-sciences
448,bb_name,Foxx Life Sciences
448,hb_id,2412
448,hb_name,Foxx Life Sciences
449,cat_tla,TQP
449,cat_name,TechniQuip
449,cat_uri,techniquip
449,bb_name,TechniQuip
449,hb_id,5298
449,hb_name,TechniQuip
450,cat_tla,SFW
450,cat_name,Safewaze
450,cat_uri,safewaze
450,bb_name,Safewaze
450,hb_id,258
450,hb_name,Safe Waze / Safewaze
451,cat_tla,GPT
451,cat_name,Gol Pumps Technology
451,cat_uri,gol-pumps-technology
451,bb_name,Gol Pumps Technology
451,hb_id,6630
451,hb_name,Gol Pumps Technology
452,cat_tla,DRD
452,cat_name,Drucker Diagnostics
452,cat_uri,drucker-diagnostics
452,bb_name,Drucker Diagnostics
452,hb_id,93
452,hb_name,Drucker Diagnostics
453,cat_tla,ACI
453,cat_name,Accuris Instruments
453,cat_uri,accuris-instruments
453,bb_name,Accuris Instruments
453,hb_id,2389
453,hb_name,Accuris Instruments
454,cat_tla,AMG
454,cat_name,Advantech Manufacturing
454,cat_name1,Advantech
454,cat_uri,advantech-manufacturing
454,bb_name,Advantech Manufacturing
454,hb_id,2384
454,hb_name,Advantech Manufacturing
455,cat_tla,MJS
455,cat_name,Major Science
455,cat_uri,major-science
455,bb_name,Major Science
455,hb_id,2404
455,hb_name,Major Science
456,cat_tla,BMS
456,cat_name,Benchmark Scientific
456,cat_uri,benchmark-scientific
456,bb_name,Benchmark Scientific
456,hb_id,1021
456,hb_name,Benchmark Scientific
457,cat_tla,HSM
457,cat_name,Hirschmann
457,cat_uri,hirschmann
457,bb_name,Hirschmann
457,hb_id,2439
457,hb_name,Hirschmann
458,cat_tla,WLG
458,cat_name,Wilmad-LabGlass
458,cat_uri,wilmad-labglass
458,bb_name,Wilmad-LabGlass
458,hb_id,2398
458,hb_name,Wilmad-LabGlass
459,cat_tla,EMD
459,cat_name,EMD Millipore
459,cat_uri,emd-millipore
459,bb_name,EMD Millipore
459,hb_id,1087
459,hb_name,EMD Millipore
460,cat_tla,SNX
460,cat_name,Sonix 4
460,cat_uri,sonix-4
460,bb_name,Sonix 4
460,hb_id,4054
460,hb_name,Sonix IV / Sonix 4
461,cat_tla,BEG
461,cat_name,Bellco Glass
461,cat_uri,bellco-glass
461,bb_name,Bellco Glass
461,hb_id,2422
461,hb_name,Bellco Glass
462,cat_tla,KNM
462,cat_name,Kinematica
462,cat_uri,kinematica
462,bb_name,Kinematica
462,hb_id,2392
462,hb_name,Kinematica
463,cat_tla,JGF
463,cat_name,J.G. Finneran Associates
463,cat_uri,j-g-finneran-associates
463,bb_name,J.G. Finneran Associates
463,hb_id,1829
463,hb_name,J.G. Finneran Associates
464,cat_tla,DVG
464,cat_name,Diamond Vantage
464,cat_uri,dia-mond-vantage
464,bb_name,Diamond Vantage
464,hb_id,2787
464,hb_name,Diamond Vantage
465,cat_tla,SNS
465,cat_name,Sensorex
465,cat_uri,sensorex
465,bb_name,Sensorex
465,hb_id,1445
465,hb_name,Sensorex
466,cat_tla,AMT
466,cat_name,Amico Corporation
466,cat_uri,amico-corporation
466,bb_name,Amico Corporation
466,hb_id,1051
466,hb_name,Amico Corporation
467,cat_tla,VRM
467,cat_name,Varem
467,cat_uri,varem
467,bb_name,Varem
467,hb_id,6762
467,hb_name,Varem
468,cat_tla,DBP
468,cat_name,Dab Pumps
468,cat_uri,dab-pumps
468,bb_name,Dab Pumps
468,hb_id,6763
468,hb_name,Dab Pumps
469,cat_tla,IOP
469,cat_name,IOptron
469,cat_uri,ioptron
469,bb_name,IOptron
469,hb_id,5570
469,hb_name,iOptron
470,cat_tla,AZL
470,cat_name,Azlon
470,cat_name1,Azlon Plastics
470,cat_uri,azlon-plastics
470,bb_name,Azlon
470,hb_id,2420
470,hb_name,Azlon Plastics
471,cat_tla,SCO
471,cat_name,Scienscope
471,cat_uri,scienscope
471,bb_name,Scienscope
471,hb_id,437
471,hb_name,Scienscope
472,cat_tla,EDV
472,cat_name,Edvotek
472,cat_uri,edvotek
472,bb_name,Edvotek
472,hb_id,1017
472,hb_name,Edvotek
473,cat_tla,BMH
473,cat_name,Benchmark Hermle
473,cat_uri,benchmark-hermle
473,bb_name,Benchmark Hermle
473,hb_id,6708
473,hb_name,Benchmark Hermle
474,cat_tla,EYE
474,cat_name,Eyela USA
474,cat_uri,eyela-usa
474,bb_name,Eyela USA
474,hb_id,1362
474,hb_name,Eyela USA
475,cat_tla,LSC
475,cat_name,Labsciences
475,cat_uri,labsciences
475,bb_name,Labsciences
475,hb_id,5638
475,hb_name,"Labsciences, Inc."
476,cat_tla,LTS
476,cat_name,LTS
476,cat_uri,lts
476,bb_name,LTS
476,hb_id,2692
476,hb_name,LTS
477,cat_tla,THK
477,cat_name,ThermoTek
477,cat_uri,thermotek
477,bb_name,ThermoTek
477,hb_id,5297
477,hb_name,ThermoTek
478,cat_tla,INC
478,cat_name,International Cryogenics
478,cat_uri,international-cryogenics
478,bb_name,International Cryogenics
478,hb_id,1221
478,hb_name,International Cryogenics
479,cat_tla,BSS
479,cat_name,Blue Sea Systems
479,cat_uri,blue-sea-systems
479,bb_name,Blue Sea Systems
479,hb_id,5385
479,hb_name,Blue Sea Systems
480,cat_tla,AZS
480,cat_name,Azer Scientific
480,cat_uri,azer-scientific
480,bb_name,Azer Scientific
480,hb_id,4735
480,hb_name,Azer Scientific
481,cat_tla,GMR
481,cat_name,Gemoro
481,cat_uri,gemoro
481,bb_name,Gemoro
481,hb_id,5504
481,hb_name,Gemoro
482,cat_tla,IMP
482,cat_name,Imperial
482,cat_uri,imperial
482,bb_name,Imperial
482,hb_id,6684
482,hb_name,Imperial Commercial Cooking Equipment
483,cat_tla,MDI
483,cat_name,MDI Membrane Technologies
483,cat_uri,mdi-membrane-technologies
483,bb_name,MDI Membrane Technologies
483,hb_id,5744
483,hb_name,MDI Membrane Technologies
484,cat_tla,HSK
484,cat_name,Heskins
484,cat_uri,heskins
484,bb_name,Heskins
484,hb_id,6811
484,hb_name,Heskins
485,cat_tla,EBC
485,cat_name,Eberbach Corporation
485,cat_name1,Eberbach
485,cat_uri,eberbach-corporation
485,bb_name,Eberbach Corporation
485,hb_id,1079
485,hb_name,Eberbach Corporation
486,cat_tla,RML
486,cat_name,RemoteLock
486,cat_uri,remotelock
486,bb_name,RemoteLock
486,hb_id,6747
486,hb_name,RemoteLock
487,cat_tla,BRM
487,cat_name,BrandMax
487,cat_uri,brandmax
487,bb_name,BrandMax
487,hb_id,3895
487,hb_name,BrandMax
488,cat_tla,JEN
488,cat_name,Jenco Instruments
488,cat_uri,jenco-instruments
488,bb_name,Jenco Instruments
488,hb_id,1203
488,hb_name,Jenco Instruments
489,cat_tla,SNC
489,cat_name,Sonicor
489,cat_uri,sonicor
489,bb_name,Sonicor
489,hb_id,5252
489,hb_name,Sonicor
490,cat_tla,PRS
490,cat_name,Pyramex Safety
490,cat_name1,Pyramex
490,cat_uri,pyramex-safety
490,bb_name,Pyramex Safety
490,hb_id,6978
490,hb_name,Pyramex Safety
491,cat_tla,LAA
491,cat_name,Lab Armor
491,cat_uri,lab-armor
491,bb_name,Lab Armor
491,hb_id,2461
491,hb_name,Lab Armor
492,cat_tla,ALK
492,cat_name,Aleko
492,cat_uri,aleko
492,bb_name,Aleko
492,hb_id,6812
492,hb_name,ALEKO
493,cat_tla,DRS
493,cat_name,Durastill
493,cat_uri,durastill
493,bb_name,Durastill
493,hb_id,5437
493,hb_name,Durastill
494,cat_tla,GZM
494,cat_name,Gizmo Engineering
494,cat_uri,gizmo-engineering
494,bb_name,Gizmo Engineering
494,hb_id,1770
494,hb_name,Gizmo Engineering
495,cat_tla,WTT
495,cat_name,WaterTech
495,cat_uri,watertech
495,bb_name,WaterTech
495,hb_id,6998
495,hb_name,WaterTech
496,cat_tla,PCL
496,cat_name,PACLOCK
496,cat_name1,Pacific Lock
496,cat_name2,Pacific Lock Company
496,cat_uri,pacific-lock
496,bb_name,Pacific Lock
496,hb_id,4867
496,hb_name,Pacific Lock
497,cat_tla,AIK
497,cat_name,Aiken
497,cat_uri,aiken
497,bb_name,Aiken
497,hb_id,5215
497,hb_name,Aiken
498,cat_tla,CLF
498,cat_name,Cle-Force
498,cat_uri,cle-force
498,bb_name,Cle-Force
498,hb_id,1041
498,hb_name,Cle-Force
499,cat_tla,GRT
499,cat_name,Greenfield Threading
499,cat_uri,greenfield-threading
499,bb_name,Greenfield Threading
499,hb_id,7009
499,hb_name,Greenfield Threading
500,cat_tla,CLL
500,cat_name,Cle-Line
500,cat_uri,cle-line
500,bb_name,Cle-Line
500,hb_id,1028
500,hb_name,Cle-Line
501,cat_tla,CHL
501,cat_name,Chicago-Latrobe
501,cat_uri,chicago-latrobe
501,bb_name,Chicago-Latrobe
501,hb_id,1039
501,hb_name,Chicago-Latrobe
502,cat_tla,BST
502,cat_name,Bassett
502,cat_uri,bassett
502,bb_name,Bassett
502,hb_id,1038
502,hb_name,Bassett
503,cat_tla,LVJ
503,cat_name,Lovejoy
503,cat_uri,lo-vejoy
503,bb_name,Lovejoy
503,hb_id,4898
503,hb_name,Lovejoy
504,cat_tla,OMS
504,cat_name,Omicron
504,cat_name1,Omicron Scientific
504,cat_uri,omicron-scientific
504,bb_name,Omicron Scientific
504,hb_id,5890
504,hb_name,Omicron Scientific
505,cat_tla,VRG
505,cat_name,Vermont Gage
505,cat_uri,vermont-gage
505,bb_name,Vermont Gage
505,hb_id,2250
505,hb_name,Vermont Gage
506,cat_tla,VAS
506,cat_name,Van Air Systems
506,cat_uri,van-air-systems
506,bb_name,Van Air Systems
506,hb_id,6392
506,hb_name,Van Air Systems
507,cat_tla,NIB
507,cat_name,NIBCO
507,cat_uri,nibco
507,bb_name,NIBCO
507,hb_id,691
507,hb_name,NIBCO
508,cat_tla,RCM
508,cat_name,Richmar
508,cat_uri,richmar
508,bb_name,Richmar
508,hb_id,3726
508,hb_name,Richmar
509,cat_tla,OLP
509,cat_name,Oxford Lab Products
509,cat_uri,oxford-lab-products
509,bb_name,Oxford Lab Products
509,hb_id,5283
509,hb_name,Oxford Lab Products
510,cat_tla,PFD
510,cat_name,Pro Flow Dynamics
510,cat_uri,pro-flow-dynamics
510,bb_name,Pro Flow Dynamics
510,hb_id,6997
510,hb_name,Pro Flow Dynamics
511,cat_tla,SPI
511,cat_name,SPI
511,cat_uri,spi
511,bb_name,SPI
511,hb_id,6714
511,hb_name,SPI
512,cat_tla,PRE
512,cat_name,PR electronics
512,cat_uri,pr-electronics
512,bb_name,PR electronics
512,hb_id,6634
512,hb_name,PR electronics Inc
513,cat_tla,NEV
513,cat_name,
513,cat_uri,nev-s-ink
513,bb_name,Nevs Ink
513,hb_id,5856
513,hb_name,
514,cat_tla,HDE
514,cat_name,HDE
514,cat_uri,hde
514,bb_name,HDE
514,hb_id,2242
514,hb_name,HDE
515,cat_tla,SEK
515,cat_name,Seekonk
515,cat_uri,seekonk
515,bb_name,Seekonk
515,hb_id,4774
515,hb_name,Seekonk
516,cat_tla,HOT
516,cat_name,Hoyt
516,cat_uri,hoyt
516,bb_name,Hoyt
516,hb_id,4689
516,hb_name,Hoyt
517,cat_tla,MOI
517,cat_name,Monarch Instrument
517,cat_uri,monarch-instrument
517,bb_name,Monarch Instrument
517,hb_id,516
517,hb_name,Monarch Instrument
518,cat_tla,1AG
518,cat_name,AgraTronix
518,cat_uri,-agratronix-
518,bb_name,AgraTronix
518,hb_id,835
518,hb_name,AgraTronix
519,cat_tla,1VI
519,cat_name,Viasensor
519,cat_uri,-viasensor-
519,bb_name,Viasensor
519,hb_id,877
519,hb_name,Viasensor / QED
520,cat_tla,VLM
520,cat_name,Valumax
520,cat_uri,valumax
520,bb_name,Valumax
520,hb_id,6390
520,hb_name,Valumax
521,cat_tla,1AV
521,cat_name,Aven
521,cat_uri,-aven-
521,bb_name,Aven
521,hb_id,1850
521,hb_name,"Aven, Inc."
522,cat_tla,MDC
522,cat_name,Medcom
522,cat_uri,medcom
522,bb_name,Medcom
522,hb_id,912
522,hb_name,Medcom
523,cat_tla,PRC
523,cat_name,Precision Medical
523,cat_uri,precision-medical
523,bb_name,Precision Medical
523,hb_id,3081
523,hb_name,Precision Medical
524,cat_tla,1RD
524,cat_name,Bradley
524,cat_uri,-bradley-
524,bb_name,Bradley
524,hb_id,232
524,hb_name,Bradley
525,cat_tla,SAE
525,cat_name,SAER
525,cat_uri,saer
525,bb_name,SAER
525,hb_id,7171
525,hb_name,SAER
526,cat_tla,1TA
526,cat_name,Talboys
526,cat_uri,-talboys-
526,bb_name,Talboys
526,hb_id,1063
526,hb_name,Talboys
527,cat_tla,1MO
527,cat_name,Beckman Coulter
527,cat_uri,-beckman-coulter-
527,bb_name,Beckman Coulter
527,hb_id,25
527,hb_name,Beckman Coulter (Met One)
528,cat_tla,1SH
528,cat_name,Shimpo Instruments
528,cat_uri,-shimpo-instruments-
528,bb_name,Shimpo
528,hb_id,407
528,hb_name,Shimpo Instruments
529,cat_tla,1TI
529,cat_name,TPI
529,cat_uri,-tpi-
529,bb_name,TPI
529,hb_id,816
529,hb_name,Test Products International (TPI)
530,cat_tla,1BI
530,cat_name,Biomiga
530,cat_uri,-biomiga-
530,bb_name,Biomiga
530,hb_id,5068
530,hb_name,Biomiga
531,cat_tla,BUS
531,cat_name,Buck Scientific
531,cat_uri,buck-scientific
531,bb_name,Buck Scientific
531,hb_id,1147
531,hb_name,Buck Scientific Instrument Manufacturing Company
532,cat_tla,PCT
532,cat_name,Pace Technologies
532,cat_uri,pace-technologies
532,bb_name,Pace Technologies
532,hb_id,5904
532,hb_name,Pace Technologies
533,cat_tla,MLC
533,cat_name,MiLocks
533,cat_uri,milocks
533,bb_name,MiLocks
533,hb_id,6746
533,hb_name,MiLocks
534,cat_tla,MIR
534,cat_name,Miltronics
534,cat_name1,Pacer Instruments
534,cat_uri,miltronics
534,bb_name,Miltronics
534,hb_id,2498
534,hb_name,Pacer Instruments
535,cat_tla,RTC
535,cat_name,Roscid Technologies
535,cat_uri,roscid-technologies
535,bb_name,Roscid Technologies
535,hb_id,4649
535,hb_name,Roscid Technologies
536,cat_tla,JNW
536,cat_name,Jenway
536,cat_uri,jenway
536,bb_name,Jenway
536,hb_id,1188
536,hb_name,Jenway
537,cat_tla,ZKT
537,cat_name,ZKTeco
537,cat_uri,zkteco
537,bb_name,ZKTeco
537,hb_id,6754
537,hb_name,ZKTeco
538,cat_tla,GRC
538,cat_name,Graphic Controls
538,cat_uri,graphic-controls
538,bb_name,Graphic Controls
538,hb_id,71
538,hb_name,Graphic Controls
539,cat_tla,AAL
539,cat_name,Aalborg
539,cat_uri,aalborg
539,bb_name,Aalborg
539,hb_id,4619
539,hb_name,Aalborg
540,cat_tla,CEC
540,cat_name,Cecomp Electronics
540,cat_uri,cecomp-electronics
540,bb_name,Cecomp Electronics
540,hb_id,2490
540,hb_name,Cecomp Electronics
541,cat_tla,SPS
541,cat_name,Spartan Scientific
541,cat_uri,spartan-scientific
541,bb_name,Spartan Scientific
541,hb_id,4674
541,hb_name,Spartan Scientific
542,cat_tla,PRT
542,cat_name,Portwest
542,cat_uri,portwest
542,bb_name,Portwest
542,hb_id,7274
542,hb_name,Portwest
543,cat_tla,CAC
543,cat_name,Canfield Connector
543,cat_uri,canfield-connector
543,bb_name,Canfield Connector
543,hb_id,4673
543,hb_name,Canfield Connector
544,cat_tla,PEN
544,cat_name,Pentair
544,cat_name1,"Pentair Aquatic Eco-Systems, Inc. (Emperor Aquatics)"
544,cat_uri,pentair
544,bb_name,Pentair
544,hb_id,141
544,hb_name,Pentair (Emperor Aquatics)
545,cat_tla,1AU
545,cat_name,Austin Air
545,cat_uri,-austin-air-
545,bb_name,Austin Air
545,hb_id,1987
545,hb_name,Austin / Austin Air
546,cat_tla,ELA
546,cat_name,Elma
546,cat_uri,elma
546,bb_name,Elma
546,hb_id,3023
546,hb_name,Elma Ultrasonics
547,cat_tla,SHT
547,cat_name,SharperTek
547,cat_uri,sharpertek
547,bb_name,SharperTek
547,hb_id,6116
547,hb_name,SharperTek
548,cat_tla,ASA
548,cat_name,Assured Automation
548,cat_uri,assured-automation
548,bb_name,Assured Automation
548,hb_id,5322
548,hb_name,Assured Automation
549,cat_tla,GFP
549,cat_name,GF Piping Systems
549,cat_uri,gf-piping-systems
549,bb_name,GF Piping Systems
549,hb_id,2872
549,hb_name,GF Piping Systems
550,cat_tla,PAP
550,cat_name,Particles Plus
550,cat_uri,particles-plus
550,bb_name,Particles Plus
550,hb_id,7250
550,hb_name,Particles Plus
551,cat_tla,RCS
551,cat_name,Ron Crane Scales
551,cat_uri,ron-crane-scales
551,bb_name,Ron Crane Scales
551,hb_id,2494
551,hb_name,Ron Crane Scales
552,cat_tla,INB
552,cat_name,InBody
552,cat_uri,inbody
552,bb_name,InBody
552,hb_id,7179
552,hb_name,InBody
553,cat_tla,ENV
553,cat_name,International Enviroguard
553,cat_uri,international-enviroguard
553,bb_name,International Enviroguard
553,hb_id,7415
553,hb_name,Enviroguard
554,cat_tla,TTE
554,cat_name,Transforming Technologies
554,cat_uri,transforming-technologies
554,bb_name,Transforming Technologies
554,hb_id,6338
554,hb_name,Transforming Technologies
555,cat_tla,BHR
555,cat_name,Big Horn
555,cat_uri,big-horn
555,bb_name,Big Horn
555,hb_id,7191
555,hb_name,Big Horn Corporation
556,cat_tla,HBB
556,cat_name,Hobbes
556,cat_uri,hobbes
556,bb_name,Hobbes
556,hb_id,2132
556,hb_name,Hobbes
557,cat_tla,AFT
557,cat_name,Airfiltronix
557,cat_uri,airfiltronix
557,bb_name,Airfiltronix
557,hb_id,5300
557,hb_name,Airfiltronix
558,cat_tla,FNA
558,cat_name,Faytech
558,cat_uri,faytech
558,bb_name,Faytech
558,hb_id,7488
558,hb_name,Faytech
559,cat_tla,ALM
559,cat_name,Aloma
559,cat_uri,aloma
559,bb_name,Aloma
559,hb_id,7516
559,hb_name,Aloma Shim
560,cat_tla,SPT
560,cat_name,Spectrum Techniques
560,cat_uri,spectrum-techniques
560,bb_name,Spectrum Techniques
560,hb_id,933
560,hb_name,Spectrum Techniques
561,cat_tla,PIC
561,cat_name,PIC Gauges
561,cat_uri,pic-gauges
561,bb_name,PIC Gauges
561,hb_id,2487
561,hb_name,Pic Gauges
562,cat_tla,HDR
562,cat_name,Hydro Handle
562,cat_uri,hydro-handle
562,bb_name,Hydro Handle
562,hb_id,7496
562,hb_name,Hydro Handle
563,cat_tla,SUS
563,cat_name,Superior Steel
563,cat_uri,superior-steel
563,bb_name,Superior Steel
563,hb_id,7493
563,hb_name,Superior Steel
564,cat_tla,USR
564,cat_name,US Roto Molding
564,cat_uri,us-roto-molding
564,bb_name,US Roto Molding
564,hb_id,849
564,hb_name,US Rotomolding
565,cat_tla,IDN
565,cat_name,Ideal Networks
565,cat_uri,ideal-networks
565,bb_name,IDEAL Networks
565,hb_id,7521
565,hb_name,IDEAL Networks North America
566,cat_tla,SPR
566,cat_name,Superior Pads and Abrasives
566,cat_uri,superior-pads-and-abrasives
566,bb_name,Superior Pads and Abrasives
566,hb_id,7492
566,hb_name,Superior Pads and Abrasives
567,cat_tla,TMP
567,cat_name,Tempo
567,cat_uri,tempo
567,bb_name,Tempo
567,hb_id,7529
567,hb_name,Tempo Communications
568,cat_tla,VLB
568,cat_name,VELAB
568,cat_uri,velab
568,bb_name,VELAB
568,hb_id,7509
568,hb_name,VELAB
569,cat_tla,LMX
569,cat_name,Lumax
569,cat_uri,lumax
569,bb_name,Lumax
569,hb_id,7490
569,hb_name,Lumax
570,cat_tla,NVS
570,cat_name,NOVUS
570,cat_uri,novus
570,bb_name,NOVUS
570,hb_id,2192
570,hb_name,Novus
571,cat_tla,AMA
571,cat_name,Amaircare
571,cat_uri,amaircare
571,bb_name,Amaircare
571,hb_id,7508
571,hb_name,AmairCare
572,cat_tla,LSE
572,cat_name,LandAirSea
572,cat_uri,landairsea
572,bb_name,LandAirSea
572,hb_id,7162
572,hb_name,Land Air Sea
573,cat_tla,NKT
573,cat_name,NK Technologies
573,cat_uri,nk-technologies
573,bb_name,NK Technologies
573,hb_id,434
573,hb_name,NK Technologies
574,cat_tla,WRX
574,cat_name,Worx
574,cat_uri,worx
574,bb_name,Worx
574,hb_id,2732
574,hb_name,Worx
575,cat_tla,HRD
575,cat_name,Hardin
575,cat_uri,hardin
575,bb_name,Hardin
575,hb_id,7497
575,hb_name,Hardin Industrial
576,cat_tla,SPD
576,cat_name,Specialty Diamond
576,cat_uri,specialty-dia-mond
576,bb_name,Specialty Diamond
576,hb_id,7485
576,hb_name,Specialty Diamond
577,cat_tla,PFP
577,cat_name,PerfectPrime
577,cat_uri,perfect-prime
577,bb_name,Perfect Prime
577,hb_id,7167
577,hb_name,Perfect Prime
578,cat_tla,INP
578,cat_name,Interstate Pneumatics
578,cat_uri,interstate-pneumatics
578,bb_name,Interstate Pneumatics
578,hb_id,7190
578,hb_name,Interstate Pneumatics
579,cat_tla,ANL
579,cat_name,Analox
579,cat_uri,analox
579,bb_name,Analox
579,hb_id,7240
579,hb_name,Analox
580,cat_tla,SPL
580,cat_name,Superior Electric
580,cat_uri,superior-electric
580,bb_name,Superior Electric
580,hb_id,7189
580,hb_name,Superior Electric
581,cat_tla,BOL
581,cat_name,Boly
581,cat_uri,boly
581,bb_name,Boly
581,hb_id,7565
581,hb_name,Boly
582,cat_tla,DNP
582,cat_name,DNP
582,cat_uri,dnp
582,bb_name,DNP
582,hb_id,65
582,hb_name,DNP IMS America Corporation
583,cat_tla,DST
583,cat_name,Diestco
583,cat_uri,diestco
583,bb_name,Diestco
583,hb_id,3802
583,hb_name,Diestco
584,cat_tla,LAS
584,cat_name,Lascar
584,cat_uri,lascar
584,bb_name,Lascar
584,hb_id,890
584,hb_name,Lascar
585,cat_tla,TEC
585,cat_name,TE-CO
585,cat_uri,te-co
585,bb_name,TE-CO
585,hb_id,2773
585,hb_name,Te-Co
